<?xml version="1.0" encoding="utf-8"?>
<!-- Generator: Adobe Illustrator 24.1.0, SVG Export Plug-In . SVG Version: 6.00 Build 0)  -->
<svg version="1.1" id="Слой_1" xmlns="http://www.w3.org/2000/svg" xmlns:xlink="http://www.w3.org/1999/xlink" x="0px" y="0px"
	 viewBox="0 0 901.85 798.02" style="enable-background:new 0 0 901.85 798.02;" xml:space="preserve">
<style type="text/css">
	.st0{fill:#6300FF;}
</style>
<g>
	<path class="st0" d="M627.12,291.98c0.34,0.76,1.23,1.09,1.98,0.76c0.76-0.34,1.09-1.23,0.76-1.98c-0.34-0.76-1.23-1.09-1.98-0.76
		C627.12,290.34,626.78,291.23,627.12,291.98z"/>
	<path class="st0" d="M548.59,285.3c-1.26,0.56-1.82,2.04-1.26,3.3c0.56,1.26,2.04,1.82,3.3,1.26c1.26-0.56,1.82-2.04,1.26-3.3
		C551.33,285.3,549.85,284.73,548.59,285.3z"/>
	<path class="st0" d="M460.7,436.34c1.36,0.24,2.66-0.66,2.9-2.02c0.25-1.36-0.66-2.66-2.02-2.9c-1.36-0.24-2.66,0.66-2.9,2.02
		C458.43,434.79,459.34,436.09,460.7,436.34z"/>
	<path class="st0" d="M603.9,400.96c-0.54-0.1-1.06,0.26-1.16,0.81s0.26,1.06,0.81,1.16s1.06-0.26,1.16-0.81
		S604.44,401.06,603.9,400.96z"/>
	<path class="st0" d="M602.02,395.4c-0.54-0.1-1.06,0.26-1.16,0.81s0.26,1.06,0.81,1.16c0.54,0.1,1.06-0.26,1.16-0.81
		C602.93,396.02,602.57,395.5,602.02,395.4z"/>
	<path class="st0" d="M607.11,372.45c-0.54-0.1-1.06,0.26-1.16,0.81s0.26,1.06,0.81,1.16c0.54,0.1,1.06-0.26,1.16-0.81
		S607.66,372.55,607.11,372.45z"/>
	<path class="st0" d="M529.2,574.11c-1.63-0.29-3.19,0.79-3.48,2.42c-0.29,1.63,0.79,3.19,2.42,3.48c1.63,0.29,3.19-0.79,3.48-2.42
		C531.91,575.96,530.83,574.4,529.2,574.11z"/>
	
		<ellipse transform="matrix(0.6962 -0.7179 0.7179 0.6962 -126.0679 606.756)" class="st0" cx="653.8" cy="452.32" rx="2.5" ry="2.5"/>
	<path class="st0" d="M501.55,600.57c2.23,0.38,4.36-1.02,4.77-3.14s-1.08-4.14-3.31-4.52c-2.23-0.38-4.36,1.02-4.77,3.14
		C497.84,598.17,499.32,600.19,501.55,600.57z"/>
	<path class="st0" d="M582.26,336.87c1.36,0.24,2.66-0.66,2.9-2.02c0.25-1.36-0.66-2.66-2.02-2.9c-1.36-0.24-2.66,0.66-2.9,2.02
		C579.99,335.32,580.9,336.62,582.26,336.87z"/>
	<path class="st0" d="M568.68,318.67c-1.36-0.24-2.66,0.66-2.9,2.02s0.66,2.66,2.02,2.9c1.36,0.24,2.66-0.66,2.9-2.02
		C570.94,320.21,570.04,318.91,568.68,318.67z"/>
	
		<ellipse transform="matrix(1 -3.862437e-03 3.862437e-03 1 -1.2852 1.796)" class="st0" cx="464.36" cy="333.64" rx="4.12" ry="3.91"/>
	<path class="st0" d="M653.33,798.02c0.16-0.38,0.21-0.58,0.29-1c0.13-0.7,0.12-1.39,0-2.06l63.16-11.8
		c0.08,0.37,0.21,0.73,0.38,1.07l-26.03,13.61l0.09,0.18l26.03-13.61c0.27,0.5,0.64,0.93,1.08,1.3l-9.56,12.17l0.16,0.12l9.56-12.16
		c0.54,0.41,1.18,0.71,1.89,0.84c0.39,0.07,0.78,0.07,1.16,0.04l1.17,11.23l0.2-0.02l-1.17-11.23c1.9-0.24,3.51-1.66,3.87-3.65
		c0.12-0.64,0.08-1.27-0.06-1.86l23.67-6.35c0.46,1.58,1.77,2.86,3.5,3.17c0.02,0,0.03,0,0.05,0l-2.85,19.94l0.2,0.03l2.86-19.96
		c2.2,0.27,4.25-1.1,4.86-3.22l46.2,12.08c-0.02,0.08-0.06,0.16-0.07,0.25c-0.28,1.54,0.2,3.04,1.15,4.14l-8.39,6.69l0.14,0.15
		l8.38-6.69c0.71,0.76,1.65,1.32,2.75,1.52c2.42,0.44,4.74-0.95,5.56-3.18l25.69,8.37l0.06-0.19l-25.7-8.37
		c0.07-0.22,0.15-0.43,0.19-0.66c0.1-0.54,0.08-1.06,0.01-1.58l38.78-6.09l27.41,16.32l0.05-0.09l0.02,0.1l21.82-3.67l-0.04-0.2
		l-21.68,3.65l18.84-96.04l2.8,1.81l0.11-0.17l-2.87-1.86l2.92-22.9l-0.1-0.02l0.07-0.07l-32.63-34.1c0.59-0.62,1.01-1.4,1.17-2.3
		c0.44-2.45-1.18-4.78-3.63-5.23c-0.12-0.02-0.24-0.02-0.36-0.03l0.2-2.64l35.14,6.72l0.04-0.2l-35.16-6.73l2.67-34.61l32.41,25.65
		l0.12-0.16l-32.52-25.73l2.27-29.47c0.8,0.04,1.56-0.15,2.22-0.5l27.75,44.83l0.17-0.11l-27.74-44.82c0.14-0.08,0.27-0.18,0.4-0.28
		l27.19,30.34l0.15-0.13l-27.18-30.33c0.64-0.56,1.12-1.3,1.28-2.17c0.21-1.11-0.1-2.18-0.76-3.02l26.77-19.97l-0.12-0.16
		L875,562.92c-0.33-0.38-0.74-0.7-1.21-0.94l28.19-55.52l-0.09-0.05l0-0.1l-19.06-0.86c-0.12-1.74-1.46-3.26-3.35-3.58
		c-0.89-0.15-1.75-0.01-2.5,0.33l-11.88-21.99c1.21-0.88,2.09-2.2,2.38-3.78c0.01-0.06,0.01-0.12,0.02-0.17l34.36-0.01l0-0.2
		l-34.33,0.01c0.35-2.96-1.53-5.72-4.4-6.48l9.92-32.79c0.2,0.06,0.41,0.11,0.62,0.15c1.53,0.28,3.03-0.06,4.25-0.83l23.86,24.32
		l0.14-0.14l-23.83-24.29c1.29-0.87,2.25-2.25,2.54-3.9c0.59-3.26-1.58-6.38-4.84-6.97c-1.92-0.35-3.79,0.27-5.13,1.5l-9.65-10.11
		l40.82,4.36l0.02-0.2l-41.05-4.38l-20.93-21.94c0.85-0.84,1.47-1.94,1.69-3.2c0.05-0.3,0.08-0.61,0.09-0.91l36.96,0.36
		c0.44,1.35,1.58,2.42,3.07,2.69c2.17,0.39,4.25-1.05,4.65-3.23c0.39-2.17-1.05-4.25-3.23-4.64c-0.2-0.04-0.4-0.04-0.6-0.05
		l-1.75-12.5l21.1-0.82l-0.01-0.2l-21.12,0.82l-3.26-23.24c1.43-0.24,2.64-1.24,3.12-2.65l21.23,6.68l0.06-0.19l-21.24-6.68
		c0.04-0.13,0.08-0.25,0.11-0.38c0.19-1.05-0.06-2.07-0.6-2.9l21.76-14.95l-0.11-0.16l-21.76,14.95c-0.58-0.8-1.46-1.39-2.51-1.58
		c-0.67-0.12-1.33-0.05-1.94,0.15l-6.85-19.45l33.32-25.64l-0.06-0.08l0.07-0.07l-64.22-69.37c0.96-0.95,1.56-2.19,1.73-3.51
		l62.26,6.83l0.02-0.2l-62.25-6.83c0.06-0.62,0.02-1.26-0.13-1.89l62.45-15.98l-0.02-0.1l0.07-0.07l-57.29-64.67l4.29-6.13
		l52.81,40.58l0.12-0.16l-52.82-40.58l52.84-75.35l-0.16-0.11l-52.83,75.34l-27.88-21.44c1.25-1.69,1.58-3.98,0.66-6.03
		c-0.11-0.24-0.24-0.47-0.37-0.7l80.56-51.36l-0.11-0.17l-80.56,51.36c-0.53-0.8-1.23-1.44-2.02-1.89L858.3,32.5
		c0.1,0.05,0.19,0.11,0.3,0.15c1.55,0.6,3.28-0.18,3.88-1.72c0.58-1.51-0.15-3.19-1.62-3.82l7.55-26.69l-0.09-0.09l-7.56,26.73
		c0,0,0,0,0,0c-1.25-0.48-2.61-0.06-3.41,0.93L820.04,0.31l-0.17,0.1l37.37,27.71c-0.14,0.2-0.26,0.41-0.36,0.65
		c-0.53,1.38,0.03,2.9,1.25,3.64l-39.09,71.58c-1.58-0.83-3.5-0.96-5.25-0.18c-0.24,0.11-0.46,0.23-0.68,0.36L756.55,15.1
		c0.5-0.32,0.91-0.73,1.22-1.22l23.66,14.02c-0.59,1.06-0.71,2.38-0.17,3.58c0.9,2.02,3.27,2.92,5.28,2.02s2.92-3.27,2.01-5.28
		c-0.9-2.02-3.27-2.92-5.28-2.02c-0.09,0.04-0.17,0.1-0.25,0.15L767.27,0.32l-0.17,0.1l15.74,26.03c-0.55,0.33-1,0.76-1.33,1.28
		L757.86,13.7c0.59-1.06,0.71-2.38,0.17-3.58c-0.67-1.5-2.16-2.38-3.7-2.36l-0.35-7.4l-0.2,0.01l0.35,7.41
		c-0.46,0.03-0.93,0.13-1.38,0.33c-1.47,0.66-2.33,2.09-2.35,3.6l-11.06,0.14c-0.02-0.37-0.09-0.73-0.25-1.09
		c-0.68-1.51-2.45-2.19-3.96-1.51c-0.17,0.07-0.32,0.17-0.46,0.27l-7.84-9.2l-0.16,0.12l7.85,9.21c-0.68,0.54-1.09,1.34-1.13,2.18
		l-24.34-0.55c-0.07-0.6-0.23-1.21-0.49-1.8c-1.35-3.02-4.9-4.38-7.93-3.02c-0.67,0.3-1.26,0.72-1.76,1.21l-9.04-7.36l-0.14,0.14
		l9.03,7.36c-0.4,0.43-0.74,0.91-1,1.42l-21.52-8.94l-0.04,0.09l-0.08-0.06l-47.09,56.05l5.17-55.98l-0.2-0.02l-5.2,56.27
		l-23.27,28.44c-0.57-0.45-1.21-0.79-1.9-1.01L629.15,0.4l-0.19-0.06l-25.57,83.67c-1.31-0.37-2.74-0.3-4.08,0.3
		c-1.06,0.47-1.91,1.22-2.51,2.12l-26.37-16.81l49.04-69.19l-0.16-0.11L570.25,69.5l-30.97-19.74l65.46-49.32l-0.12-0.16
		L539.1,49.65l-5.67-3.62c0.4-0.44,0.73-0.95,0.95-1.53c0.99-2.58-0.29-5.47-2.87-6.46c-2.52-0.97-5.33,0.25-6.38,2.71l-28.1-17.91
		c0.08-0.14,0.16-0.29,0.23-0.45c0.59-1.55-0.18-3.28-1.72-3.88c-1.55-0.6-3.28,0.18-3.88,1.72c-0.4,1.04-0.17,2.16,0.49,2.97
		l-12.33,10.82c-0.3-0.32-0.67-0.59-1.1-0.75c-1.31-0.5-2.75-0.02-3.52,1.07L421.1-0.22l-0.05,0.08l-0.09-0.04l-5.3,13.04
		c-3.06-1.1-6.45,0.44-7.62,3.48c-0.82,2.13-0.34,4.44,1.04,6.06L381.32,47c-0.26-0.22-0.55-0.41-0.88-0.54
		c-1.55-0.6-3.28,0.18-3.88,1.72s0.18,3.28,1.72,3.88c1.36,0.53,2.87-0.02,3.62-1.21l45.16,22.39c-0.02,0.04-0.04,0.08-0.05,0.12
		c-0.72,1.88-0.43,3.9,0.6,5.46l-33.11,21.32c-0.66-0.97-1.68-1.69-2.93-1.91c-2.45-0.44-4.79,1.19-5.23,3.63
		c-0.44,2.45,1.18,4.78,3.63,5.23c0.2,0.04,0.39,0.04,0.58,0.05l-0.68,26.37c-0.86,0-1.68,0.25-2.38,0.68L298.97,0.31l-0.17,0.11
		l88.51,133.85c-0.96,0.66-1.66,1.68-1.88,2.91c-0.44,2.45,1.18,4.78,3.63,5.23c1.32,0.24,2.59-0.14,3.57-0.91l118.13,143.37
		c-0.4,2.1,0.73,4.24,2.8,5.03c0.52,0.2,1.06,0.28,1.59,0.29l43.67,52.99l-31.94-35.45c-0.23-1.19-1.08-2.25-2.36-2.72
		c-0.04-0.01-0.07-0.02-0.11-0.03l-58.41-64.82c0.02-0.05,0.06-0.1,0.08-0.15c0.89-2.32-0.26-4.92-2.58-5.82
		c-0.98-0.38-2.01-0.37-2.95-0.08l-31.49-34.95c0.22-0.32,0.41-0.66,0.56-1.03c0.99-2.58-0.29-5.47-2.87-6.46
		c-2.58-0.99-5.47,0.29-6.46,2.87c-0.99,2.58,0.29,5.47,2.87,6.46c2.13,0.82,4.47,0.07,5.78-1.68l31.41,34.86
		c-1.18,0.43-2.18,1.33-2.66,2.59c-0.89,2.32,0.26,4.92,2.58,5.82c1.62,0.62,3.36,0.23,4.57-0.83l57.98,63.04
		c-1.4,0.12-2.67,0.96-3.21,2.28c-0.75,1.86,0.22,3.95,2.18,4.66s4.16-0.21,4.92-2.07c0.07-0.16,0.1-0.33,0.14-0.49l38.24,41.58
		l17.65,21.42l-4.21-3.77l-139.9-132.18c0.82-2.29-0.32-4.84-2.61-5.72c-1.27-0.49-2.62-0.35-3.74,0.25l-27.14-25.55
		c0.2-0.3,0.38-0.63,0.52-0.98c0.99-2.58-0.29-5.47-2.87-6.46c-1.68-0.65-3.48-0.32-4.81,0.7L273.73,81.5
		c0.68-0.7,1.25-1.52,1.63-2.47c1.6-3.95-0.47-8.39-4.64-9.91c-4.17-1.52-8.84,0.45-10.45,4.4c-1.6,3.95,0.47,8.39,4.64,9.91
		c3.1,1.13,6.49,0.33,8.68-1.79l124.22,116.96c-0.64,0.53-1.18,1.21-1.5,2.04c-0.99,2.58,0.29,5.47,2.87,6.46
		c1.81,0.7,3.77,0.25,5.12-0.96l27.05,25.27c-0.5,0.45-0.91,1.01-1.17,1.68c-0.29,0.75-0.34,1.54-0.23,2.28L284.17,104.84
		c0.62-0.67,1.13-1.47,1.48-2.37c1.49-3.86-0.44-8.2-4.31-9.69c-3.86-1.49-8.2,0.44-9.69,4.3c-1.49,3.86,0.44,8.2,4.31,9.69
		c2.89,1.11,6.05,0.31,8.08-1.78L430,235.69c0.32,1.42,1.31,2.67,2.77,3.23c0.37,0.14,0.74,0.21,1.12,0.26l98.68,88.37
		c-0.05-0.01-0.09-0.03-0.14-0.04c-1.25-0.22-2.44,0.53-2.81,1.7c-0.21-0.1-0.42-0.19-0.66-0.23c-0.59-0.11-1.17,0.02-1.66,0.29
		L383.22,211.7c0.54-0.53,0.98-1.18,1.27-1.93c1.09-2.83-0.32-6.02-3.16-7.11c-2.47-0.95-5.2,0-6.58,2.13l-104.2-85.03
		c0.63-2.85-0.89-5.8-3.7-6.88c-2.86-1.1-6.04,0.14-7.44,2.78L239.4,99.62c0.56-0.64,1.02-1.38,1.34-2.22
		c1.49-3.86-0.44-8.2-4.31-9.69c-3.86-1.49-8.2,0.44-9.69,4.3c-1.49,3.86,0.44,8.2,4.31,9.69c2.96,1.14,6.2,0.27,8.22-1.94
		l20.05,16.06c-0.08,0.16-0.15,0.32-0.21,0.48c-1.19,3.09,0.35,6.56,3.44,7.75c2.06,0.79,4.29,0.37,5.9-0.92l105.42,84.48
		c-0.07,2.27,1.28,4.43,3.52,5.29c1.11,0.43,2.26,0.47,3.33,0.19l28.14,22.55c-2.2-0.59-4.53,0.54-5.36,2.71
		c-0.27,0.71-0.33,1.44-0.25,2.14l-45.93-34.58c-0.53-0.52-1.16-0.95-1.9-1.23c-1.11-0.43-2.27-0.47-3.34-0.19l-85.66-63.58
		c0.96-3-0.57-6.27-3.55-7.42c-3.09-1.19-6.56,0.35-7.75,3.44s0.35,6.56,3.44,7.75c3.09,1.19,6.56-0.35,7.75-3.44
		c0.02-0.04,0.03-0.09,0.04-0.13l85.48,63.45c-1.56,0.48-2.89,1.64-3.52,3.28c-1.09,2.83,0.32,6.02,3.16,7.11
		c2.83,1.09,6.02-0.32,7.11-3.15c0.25-0.64,0.36-1.31,0.36-1.96l218.1,161.88L385.98,240.49c-0.75-1.79-2.43-3.12-4.49-3.34
		c-0.14-0.01-0.27-0.02-0.4-0.02l-111.44-76.55c0.4-2.71-1.11-5.43-3.78-6.46c-1.73-0.67-3.59-0.48-5.09,0.37l-37.4-25.69
		c0.32-0.46,0.59-0.95,0.8-1.49c1.39-3.61-0.41-7.66-4.02-9.05c-3.61-1.39-7.66,0.41-9.04,4.02c-1.39,3.61,0.41,7.66,4.02,9.05
		c3,1.16,6.3,0.1,8.13-2.36l37.33,25.64c-1.09,0.66-1.98,1.68-2.47,2.96c-1.19,3.09,0.35,6.56,3.44,7.75
		c2.26,0.87,4.71,0.28,6.33-1.3l58.75,39.75c-1.27,0.57-2.33,1.63-2.87,3.04c-0.29,0.75-0.4,1.52-0.36,2.27l-9.03-5.85
		c0.82-2.94-0.72-6.08-3.63-7.2c-2.09-0.81-4.36-0.36-5.97,0.97l-9.97-6.47c-0.1-2.31-1.54-4.46-3.84-5.34
		c-1.46-0.56-3.01-0.51-4.36,0.03l-7.61-4.94c0.25-0.37,0.46-0.76,0.62-1.19c1.19-3.09-0.35-6.56-3.44-7.75
		c-3.09-1.19-6.56,0.35-7.75,3.44s0.35,6.56,3.44,7.75c2.6,1,5.46,0.07,7.01-2.09l7.5,4.86c-1.4,0.62-2.57,1.78-3.16,3.32
		c-1.19,3.09,0.35,6.56,3.44,7.75c2.67,1.03,5.62,0.02,7.14-2.27l9.07,5.76c-0.91,2.98,0.62,6.21,3.58,7.35
		c2.18,0.84,4.55,0.32,6.17-1.15l244.63,155.42c-0.07,0.05-0.14,0.11-0.2,0.16L361.74,243.88c0.01-0.07,0.03-0.14,0.03-0.21
		c0.32-3.02-1.87-5.73-4.89-6.05c-1.41-0.15-2.75,0.25-3.82,1.03l-134-80.79c0.21-0.33,0.39-0.69,0.54-1.07
		c1.19-3.09-0.35-6.56-3.44-7.75c-3.09-1.19-6.56,0.35-7.75,3.44c-1.19,3.09,0.35,6.56,3.44,7.75c2.65,1.02,5.57,0.03,7.1-2.21
		l133.94,80.76c-1.12,0.89-1.89,2.2-2.06,3.73c-0.32,3.02,1.87,5.73,4.89,6.05c2.31,0.25,4.44-0.98,5.45-2.93L556.4,362.52
		c-0.08,0.19-0.15,0.38-0.19,0.59c-0.03,0.19-0.04,0.37-0.03,0.55L334.93,243.82c0.03-0.14,0.05-0.29,0.07-0.44
		c0.32-3.02-1.87-5.73-4.89-6.05c-1.68-0.18-3.25,0.42-4.38,1.5l-99.93-54.12c0.1-0.2,0.2-0.4,0.28-0.61
		c1.19-3.09-0.35-6.56-3.44-7.75c-3.09-1.19-6.56,0.35-7.75,3.44s0.35,6.56,3.44,7.75c2.82,1.08,5.94-0.1,7.37-2.66l99.88,54.1
		c-0.82,0.85-1.38,1.97-1.52,3.24c-0.32,3.02,1.87,5.73,4.89,6.05c2.8,0.3,5.33-1.57,5.94-4.25L556.2,363.9
		c0.15,1.04,0.93,1.91,2.02,2.11c0.53,0.1,1.05,0.01,1.5-0.2l22.76,12.33l4.11,2.46l-64.55-32.6c0.17-1.31-0.71-2.54-2.03-2.78
		c-0.82-0.15-1.61,0.13-2.17,0.66l-35.96-18.16c-0.25-1.15-1.16-2.1-2.4-2.32c-0.62-0.11-1.23-0.02-1.77,0.22l-170.18-85.95
		c0.07-0.27,0.13-0.55,0.16-0.84c0.35-3.29-2.04-6.25-5.33-6.6c-2.08-0.22-4.03,0.65-5.27,2.16l-16.25-8.21
		c-0.97-1.27-2.43-2.15-4.14-2.33c-0.18-0.02-0.37-0.03-0.55-0.03l-17.5-8.84c-0.94-1.55-2.56-2.66-4.49-2.86
		c-0.4-0.04-0.8-0.04-1.19-0.01l-13.85-7c0.07-0.15,0.14-0.3,0.2-0.46c1.19-3.09-0.35-6.56-3.44-7.75
		c-3.09-1.19-6.56,0.35-7.75,3.44c-1.19,3.09,0.35,6.56,3.44,7.75c2.87,1.11,6.07-0.15,7.46-2.81l13.59,6.86
		c-2.63,0.4-4.77,2.52-5.06,5.29c-0.35,3.29,2.04,6.25,5.34,6.6c2.54,0.27,4.88-1.09,5.97-3.24l12.07,5.9
		c-0.44,0.73-0.74,1.57-0.84,2.47c-0.35,3.29,2.04,6.25,5.34,6.6c2.77,0.29,5.29-1.35,6.23-3.83l14.09,6.89
		c0.3,2.75,2.47,5.02,5.33,5.32c1.38,0.15,2.69-0.19,3.78-0.86l171.37,83.79c-0.11,0.23-0.2,0.47-0.25,0.74
		c-0.29,1.63,0.79,3.19,2.42,3.48c1.33,0.24,2.61-0.45,3.19-1.6l35.54,17.38c-0.01,0.05-0.04,0.1-0.05,0.16
		c-0.25,1.36,0.66,2.66,2.02,2.9c0.94,0.17,1.85-0.22,2.4-0.93l68.94,33.71l2.15,1.29l0.61,0.74L198.19,213.6
		c1.51-2.67,0.03-5.99-2.97-6.65c-1.87-0.41-3.87,0.48-4.82,2.14c-1.3,2.28-0.41,5.03,1.74,6.2l-7.17,39.01
		c-2.64-0.42-5.14,1.55-5.21,4.35c-0.02,0.64,0.12,1.26,0.37,1.83l-29.08,13.06c-0.51-1.06-1.43-1.92-2.57-2.32
		c-2.91-1-5.91,1.09-5.99,4.16c-0.04,1.62,0.85,3.15,2.22,3.96l-29.68,53.01c-0.25-0.19-0.52-0.35-0.82-0.46
		c-2.34-0.9-4.81,0.82-4.79,3.32c0.01,1.39,0.92,2.69,2.22,3.19c1.47,0.56,2.98,0.1,3.9-0.94l51.74,57.21
		c-0.52,0.49-0.89,1.14-1.03,1.9c-0.34,1.9,0.92,3.72,2.82,4.06c0.47,0.08,0.92,0.07,1.36-0.03l3.88,15.8l-10.38,2.35
		c-0.42-1.66-1.76-3.01-3.56-3.34c-2.45-0.44-4.79,1.19-5.23,3.63c-0.42,2.34,1.05,4.56,3.32,5.14l-14.26,61.63
		c-2.72-0.56-5.34,1.44-5.42,4.32c-0.05,1.92,1.2,3.71,3.01,4.34c0.19,0.07,0.39,0.12,0.58,0.16l-2.68,14.65
		c-2.33-0.37-4.53,1.11-5.08,3.39l-37.44-8.11c0.05-0.23,0.08-0.47,0.09-0.72c0.13-2.36-1.52-4.55-3.82-5.1
		c-3.03-0.72-6,1.45-6.17,4.62c-0.13,2.36,1.52,4.55,3.82,5.1c1.14,0.27,2.27,0.13,3.25-0.32l13.87,28.78
		c-1.21,0.62-2.13,1.76-2.39,3.2c-0.35,1.93,0.6,3.78,2.22,4.7l-11.78,21.97c-0.38-0.19-0.79-0.35-1.23-0.43
		c-2.45-0.44-4.79,1.19-5.23,3.63c-0.11,0.62-0.09,1.23,0.04,1.8l-35.01,8.82c-0.45-1.61-1.77-2.92-3.52-3.24
		c-2.45-0.44-4.79,1.19-5.23,3.63c-0.44,2.45,1.18,4.79,3.63,5.23c0.15,0.03,0.29,0.02,0.43,0.03l-0.82,13.79
		c-1.46-0.04-2.76,0.98-3.03,2.46c-0.29,1.63,0.79,3.19,2.42,3.48c1.63,0.29,3.19-0.79,3.48-2.42c0.29-1.63-0.79-3.19-2.42-3.48
		c-0.09-0.02-0.17-0.01-0.26-0.02l0.82-13.79c2.2,0.08,4.19-1.45,4.59-3.68c0.11-0.62,0.09-1.23-0.04-1.8l35.01-8.82
		c0.45,1.61,1.77,2.92,3.52,3.24c0.42,0.08,0.84,0.07,1.24,0.03l6.71,54.8c-2.71,0.37-4.99,2.44-5.51,5.28
		c-0.64,3.53,1.71,6.91,5.24,7.55s6.91-1.71,7.55-5.24c0.28-1.55-0.02-3.07-0.73-4.34l87.86-51.3c0.31,0.5,0.71,0.94,1.2,1.29
		l-8.28,12.04c-0.57-0.47-1.26-0.83-2.05-0.97c-2.45-0.44-4.79,1.19-5.23,3.63c-0.44,2.45,1.18,4.78,3.63,5.23
		c0.92,0.16,1.82,0.04,2.61-0.31l6.2,15.47c-1.34,0.58-2.38,1.79-2.66,3.34c-0.44,2.45,1.18,4.79,3.63,5.23
		c2.41,0.43,4.72-1.15,5.2-3.54l26.29,4.68c-0.35,2.19,0.53,4.3,2.14,5.61l-21.41,28.3c-0.77-0.57-1.68-0.98-2.68-1.16
		c-3.53-0.64-6.91,1.71-7.55,5.24c-0.64,3.53,1.71,6.91,5.24,7.55c1.62,0.29,3.2-0.05,4.5-0.83l52.65,84.51
		c-1.35,0.87-2.34,2.27-2.65,3.97c-0.59,3.26,1.58,6.38,4.84,6.97c0.06,0.01,0.11,0.01,0.17,0.02l-3.92,29.2l0.2,0.03l3.92-29.21
		c1.88,0.22,3.68-0.46,4.94-1.72l33.44,31.74l0.14-0.14l-33.44-31.75c0.76-0.81,1.31-1.85,1.52-3.02c0.44-2.43-0.66-4.79-2.6-6.07
		l44.18-69.35c0.29,0.18,0.61,0.32,0.95,0.42L296,738.41c-2.81-0.76-5.61,1.28-5.69,4.24c-0.05,1.92,1.2,3.71,3.01,4.34
		c2.91,1,5.91-1.09,5.99-4.16c0-0.03,0-0.05,0-0.08l30.62-0.64c0.06,1.48,0.85,2.82,2.07,3.6l-12.48,20.51
		c-0.44-0.25-0.92-0.45-1.45-0.55c-2.45-0.44-4.79,1.19-5.23,3.63c-0.44,2.45,1.18,4.78,3.63,5.23c1,0.18,1.97,0,2.81-0.42
		L331.7,798l0.18-0.09l-12.41-23.89c0.45-0.25,0.85-0.57,1.19-0.96l29.28,24.98l0.13-0.15l-29.28-24.98c0.45-0.57,0.79-1.23,0.93-2
		c0.33-1.85-0.52-3.63-2.01-4.59l12.48-20.51c0.44,0.25,0.92,0.45,1.45,0.55c2.2,0.4,4.3-0.88,5.02-2.92l36.14,12.01
		c-0.48,3.19,1.66,6.21,4.86,6.78c0.1,0.02,0.2,0.03,0.3,0.04l-3.96,35.19l0.2,0.02l3.96-35.19c2.57,0.25,4.97-1.19,6.02-3.47
		l34.47,15.12c-0.12,0.29-0.21,0.59-0.27,0.92c-0.28,1.54,0.26,3.03,1.3,4.04l-17.08,19.01l0.15,0.13l17.09-19.02
		c0.6,0.53,1.33,0.91,2.17,1.07c1.99,0.36,3.9-0.67,4.78-2.38l13.01,6.33c-0.15,0.34-0.28,0.69-0.35,1.07
		c-0.44,2.45,1.18,4.78,3.63,5.23s4.79-1.19,5.23-3.63c0.04-0.21,0.04-0.41,0.05-0.61l46.95,0.89c0,0.52,0.1,1.01,0.27,1.48
		l-23.99,9.42l0.07,0.19l23.99-9.42c0.56,1.38,1.79,2.46,3.36,2.74c1.68,0.3,3.3-0.39,4.3-1.63l10.82,8.26l0.12-0.16l-10.82-8.26
		c0.39-0.53,0.68-1.15,0.81-1.84c0.42-2.32-1.03-4.53-3.27-5.12l4.1-16.82l49.29,5.9l10.87,26.24l0.19-0.07l-10.83-26.14l32.93,3.94
		l-0.55,22.26l0.2,0.01l0.55-22.25l42.5,5.08c-0.16,1.62,0.57,3.15,1.83,4.06l-9.46,13.19l0.16,0.11l9.45-13.18
		c0.49,0.32,1.06,0.56,1.68,0.67c1.24,0.22,2.44-0.09,3.4-0.76l4.76,6.42c-1.23,0.85-2.14,2.13-2.43,3.67
		c-0.2,1.07-0.09,2.12,0.29,3.06L653.33,798.02z M869.2,598.59L630.07,411.15c-0.2-0.27-0.47-0.48-0.79-0.62l-26.78-20.99
		c0.03-0.04,0.06-0.08,0.09-0.12l67.94,44.43c-0.04,0.11-0.08,0.22-0.1,0.33c-0.3,1.59,0.81,3.12,2.49,3.4
		c0.9,0.15,1.77-0.09,2.44-0.58l193.06,126.26c-0.29,0.42-0.5,0.91-0.6,1.44c-0.4,2.11,1.08,4.14,3.31,4.52
		c0.11,0.02,0.22,0.01,0.33,0.02L869.2,598.59z M608.56,397.9c0.12,0.02,0.24,0.01,0.35-0.01l4.26,4.68
		c0.09,0.21,0.24,0.39,0.45,0.5l37.66,41.32l-33.68-32.44l-4.72-6.33c0.22-0.76,0.17-1.66-0.32-2.61c-0.78-0.86-1.69-1.21-2.54-1.21
		l-8.42-11.29c0.11-0.09,0.22-0.17,0.32-0.27l5.86,6.43c-0.01,0.03-0.03,0.05-0.03,0.08C607.66,397.28,608.02,397.8,608.56,397.9z
		 M841.89,635.01c0.67,0.12,1.33,0.12,1.96,0.02l5.51,32.78l-24.84-16.63c0.06-0.18,0.12-0.35,0.16-0.54
		c0.44-2.45-1.18-4.79-3.63-5.23c-0.52-0.09-1.03-0.08-1.52,0.01l-0.11-12.99c1.89-0.06,3.56-1.36,3.91-3.2
		c0.4-2.11-1.08-4.14-3.31-4.52c-1.23-0.21-2.42,0.14-3.32,0.84L655.59,448.8l182.98,176.22c-0.76,0.81-1.31,1.84-1.52,3.02
		C836.46,631.3,838.63,634.42,841.89,635.01z M806.56,783.59l-11.47-22.12l11.14-3.27c0.47,2.34,2.32,4.27,4.81,4.72
		c0.11,0.02,0.21,0.03,0.32,0.04l-2.18,20.08C808.25,782.98,807.35,783.18,806.56,783.59z M718.01,779.05l-27.16-26.22l3.96-3.96
		c0.62,0.59,1.41,1.02,2.31,1.18c1.97,0.36,3.86-0.65,4.75-2.33l10.61,5.33l7.34,24.92C719.14,778.19,718.52,778.55,718.01,779.05z
		 M637.41,776.77c-0.38-0.07-0.75-0.07-1.12-0.04l-35.04-368.96c0.12,0.09,0.26,0.16,0.42,0.19c0.54,0.1,1.06-0.26,1.16-0.81
		c0.1-0.54-0.26-1.06-0.81-1.16c-0.35-0.06-0.68,0.08-0.91,0.33l-1.42-14.93c0.44-0.09,0.85-0.25,1.23-0.45l6.22,13
		c-0.22,0.76-0.17,1.66,0.32,2.61c0.44,0.48,0.92,0.79,1.41,0.99l2.15,4.49l46.54,305.15c-1.8,0.32-3.31,1.71-3.65,3.62
		c-0.39,2.15,0.83,4.22,2.79,4.99l-18.65,51.18C637.84,776.89,637.64,776.81,637.41,776.77z M498.25,784.16l-41.05-31.09l2.58-7.48
		c0.19,0.06,0.37,0.13,0.56,0.16c1.96,0.35,3.83-0.63,4.73-2.28l32.78,16.94c-0.18,0.37-0.33,0.75-0.4,1.17
		c-0.44,2.45,1.18,4.78,3.63,5.23c0.23,0.04,0.45,0.05,0.68,0.05l-0.08,15.59C500.31,782.47,499.07,783.13,498.25,784.16z
		 M446.63,781.46c-0.25-0.04-0.49-0.05-0.73-0.06l-30.27-57.75c0.41-0.27,0.77-0.6,1.08-0.99l40.25,30.48l-9.8,28.46
		C446.99,781.56,446.82,781.49,446.63,781.46z M381.77,750.41c-1.19-0.21-2.35-0.06-3.39,0.38l-15.21-30.94
		c1.19-0.62,2.1-1.75,2.36-3.18c0.02-0.12,0.02-0.24,0.03-0.35l43.17,3.33c-0.08,1.36,0.46,2.64,1.41,3.53l-25.52,28.61
		C383.84,751.1,382.87,750.61,381.77,750.41z M337.49,738.64c-0.61-0.57-1.39-0.99-2.27-1.15c-1.15-0.21-2.26,0.05-3.18,0.63
		l-13.13-23.49c1.09-0.64,1.91-1.72,2.16-3.06c0.21-1.15-0.05-2.27-0.63-3.19l16.42-10.85c0.66,0.9,1.64,1.56,2.82,1.78
		c1.46,0.26,2.87-0.22,3.87-1.16l14.34,14.58c-0.6,0.62-1.04,1.42-1.2,2.34c-0.26,1.45,0.21,2.85,1.14,3.85L337.49,738.64z
		 M209.5,665.49l87.79-25.48c0.51,1.65,1.73,3.06,3.35,3.74c1.17,0.49,2.37,0.58,3.48,0.38l7.2,35.61
		c-1.71,0.39-3.11,1.76-3.44,3.59c0,0,0,0.01,0,0.01l-98.21-15.23C209.79,667.2,209.72,666.32,209.5,665.49z M134.25,540.31
		l4.02-22.16c2.08,0.33,4.06-0.82,4.84-2.68l27.36,10.85c-0.08,0.22-0.15,0.44-0.19,0.67c-0.24,1.33,0.21,2.61,1.09,3.51
		l-32.03,33.07c-0.61-0.57-1.37-0.98-2.25-1.13c-0.44-0.08-0.87-0.07-1.29-0.02l-1.76-13.27c1.84-0.29,3.39-1.69,3.74-3.63
		C138.21,543.09,136.64,540.8,134.25,540.31z M151.09,277.26l52.92,21.73c-0.44,1.14-0.45,2.53,0.23,4.01
		c0.08,0.17,0.19,0.34,0.33,0.47c3.05,3.06,7.2,1.43,7.99-1.8l50.36,11.16c-0.09,0.3-0.16,0.61-0.16,0.95
		c0,0.12,0.02,0.24,0.03,0.36l-43.22,7.48c-0.45-2.37-2.31-4.33-4.82-4.78c-2.33-0.42-4.58,0.57-5.9,2.36l-58.15-41.22
		C150.85,277.75,150.98,277.51,151.09,277.26z M207.44,266.32h16.79c-0.06,0.28-0.11,0.57-0.11,0.87c-0.04,1.4,0.62,2.72,1.68,3.59
		l-15.38,25.9c-0.93-0.49-1.89-0.65-2.79-0.53l-3.9-25.5C205.73,270.29,207.37,268.58,207.44,266.32z M549.06,375.9
		c0.99,0.18,1.93-0.41,2.24-1.33l26.02,7.33c0.07,0.11,0.14,0.21,0.23,0.31l-55.64-12.24l-3.27-0.76c0.07-0.17,0.13-0.35,0.17-0.54
		c0.25-1.36-0.66-2.66-2.02-2.9c-1.36-0.24-2.66,0.66-2.9,2.02c-0.02,0.11-0.02,0.21-0.02,0.32l-165.35-38.24
		c0.01-0.04,0.03-0.08,0.03-0.12c0.44-2.45-1.18-4.78-3.63-5.23c-2.45-0.44-4.79,1.19-5.23,3.63c-0.09,0.51-0.08,1.01,0,1.5
		l-70.98-15.74c0.01-0.08,0.03-0.16,0.03-0.25c-0.01-1.19-0.78-2.31-1.9-2.74c-1.62-0.62-3.29,0.23-3.87,1.71l-50.39-11.17
		c0.12-0.62,0.12-1.29-0.03-1.99l33.27-9.32c0.07,0.28,0.17,0.57,0.32,0.86c1.98,2.16,4.74,1.2,5.4-0.87l295.92,83.34
		c-0.01,0.03-0.02,0.05-0.02,0.08C547.25,374.67,547.98,375.71,549.06,375.9z M580.09,381.41c0.01-0.07,0.01-0.13,0.02-0.2
		l12.8,4.37l-8.06-1.77l-5.3-1.49C579.82,382.1,580.02,381.78,580.09,381.41z M330.65,213.99l44.78,29.04
		c0.04,0.55,0.16,1.09,0.36,1.59l-47.36-30.37C329.19,214.32,329.94,214.23,330.65,213.99z M382.77,247.79l174.95,113.45
		c-0.02,0.01-0.04,0.01-0.06,0.02L381.23,248.11C381.76,248.08,382.28,247.97,382.77,247.79z M386.21,244.06l132.76,89.81
		l-133.42-88.29C385.84,245.11,386.07,244.6,386.21,244.06z M385.44,245.74l149.8,99.14l12.81,8.67L384.79,246.51
		C385.03,246.28,385.25,246.02,385.44,245.74z M489.57,249.44l9.02,11.33c-0.12,0.19-0.22,0.39-0.32,0.6l-9.41-11.15
		C489.12,249.99,489.36,249.73,489.57,249.44z M503.9,267.45l8.22,10.34l-8.61-10.21C503.64,267.54,503.77,267.5,503.9,267.45z
		 M581.07,357.18c0.01-0.06,0.01-0.11,0.01-0.17l12.19,21.19l-13.2-19.44C580.58,358.39,580.95,357.84,581.07,357.18z
		 M578.17,359.19c0.63,0.11,1.24-0.03,1.74-0.34l14.72,21.68l1.34,2.33l-39.57-49.74c0.47-0.3,0.89-0.68,1.2-1.14l19.33,22.91
		c-0.39,0.36-0.68,0.83-0.78,1.39C575.91,357.65,576.81,358.95,578.17,359.19z M516.97,232.19l8.58,16.25
		c-0.14,0.06-0.27,0.13-0.39,0.21l-8.79-16.41C516.57,232.23,516.77,232.22,516.97,232.19z M528.1,253.26L561.77,317l-34.05-63.57
		C527.85,253.38,527.98,253.32,528.1,253.26z M528.27,253.16c0.47-0.3,0.86-0.73,1.08-1.27c0.57-1.39-0.17-2.96-1.64-3.5
		c-0.66-0.24-1.35-0.22-1.97-0.02l-8.57-16.21c1.23-0.24,2.31-1.04,2.79-2.23c0.75-1.86-0.22-3.95-2.18-4.66
		c-1.66-0.61-3.48-0.03-4.46,1.28l-53.38-99.66c2-1.13,2.86-3.6,1.9-5.74c-1.02-2.27-3.68-3.28-5.95-2.27
		c-0.07,0.03-0.12,0.08-0.19,0.11L435.3,80.86c1.29-0.65,2.35-1.75,2.91-3.2c0.08-0.21,0.15-0.42,0.2-0.63l38.94,7.45
		c0,0.03-0.01,0.06-0.01,0.09c-0.35,3.29,2.04,6.25,5.34,6.6c0.73,0.08,1.45,0.01,2.12-0.16l27.5,71.07
		c-1.48,1.26-2.04,3.38-1.2,5.25c0.77,1.72,2.48,2.71,4.26,2.65l14.83,38.33c-1.83,1.19-2.58,3.55-1.66,5.6
		c0.85,1.9,2.86,2.9,4.82,2.59l60.91,157.44c-0.24,0.14-0.42,0.38-0.47,0.67c-0.1,0.54,0.26,1.06,0.81,1.16
		c0.13,0.02,0.25,0.02,0.37-0.01l2.66,6.89l0,0.02c-0.19,0.05-0.39,0.11-0.57,0.19l-18.62-34.77L528.27,253.16z M416.5,111.09
		L430.21,81c0.08,0.03,0.16,0.07,0.24,0.11c1.58,0.61,3.25,0.5,4.67-0.15l20.43,38.14c-0.98,0.55-1.68,1.41-2.03,2.41l-34.53-5.74
		C419.27,113.79,418.22,111.92,416.5,111.09z M529.75,88.12c-1.12-0.43-2.29-0.5-3.39-0.27l-4.63-19.1
		c1.73-0.25,3.27-1.38,3.94-3.13c0.64-1.66,0.32-3.44-0.67-4.77l6.78-5.26l9.33,45.97c-2.04,1.67-2.8,4.56-1.67,7.08
		c0.75,1.66,2.16,2.82,3.78,3.3l23.62,116.35c-0.86-0.08-1.75,0.02-2.6,0.38c-1.56,0.66-2.59,1.98-2.92,3.45L529.18,99.49
		c1.77-0.49,3.3-1.78,4.01-3.62C534.38,92.78,532.84,89.31,529.75,88.12z M527.99,47.38c0.72,0.27,1.47,0.34,2.19,0.28l1.56,7.7
		l-6.87,5.33c-0.48-0.6-1.11-1.09-1.86-1.42L527.99,47.38z M583.53,151.1c2.76-1.23,4.12-4.29,3.31-7.11l14.41-4.35l-0.77,78.42
		c-0.8-0.1-1.63-0.01-2.42,0.34c-2.27,1.02-3.28,3.68-2.27,5.94c0.82,1.83,2.71,2.82,4.6,2.61l-1.52,154.5l-17.24-229.88
		C582.26,151.53,582.91,151.37,583.53,151.1z M705.51,17.4c0.69-0.31,1.3-0.74,1.8-1.25l20.87,17.87l-23.72,64.87l-21.01-1.94
		c0.06-0.8-0.05-1.62-0.4-2.4c-0.46-1.02-1.22-1.8-2.12-2.3l20.63-74.52C702.83,18.06,704.22,17.98,705.51,17.4z M737.56,14.72
		c0.22-0.1,0.41-0.22,0.59-0.36l74.2,90.36c-0.22,0.18-0.42,0.38-0.61,0.6l-40.24-34.45l0.96-4.12l-0.2-0.05l-0.94,4.02
		l-42.93-36.76l6.99-19.13C736.09,15.05,736.86,15.04,737.56,14.72z M746.1,378.77c-1.33-0.24-2.62,0.15-3.6,0.93l-23.38,1.19
		c0.53-0.55,0.92-1.26,1.06-2.07c0.39-2.17-1.05-4.25-3.23-4.64c-2.17-0.39-4.25,1.05-4.65,3.23c-0.06,0.32-0.06,0.63-0.05,0.94
		l-88.34,7.38l-20.63,1.05c-0.01-0.11-0.03-0.22-0.04-0.33l21.06-3.83c0.13,0.28,0.38,0.5,0.71,0.56c0.54,0.1,1.06-0.26,1.16-0.81
		c0.01-0.03,0-0.06,0-0.09l25.8-4.69c0.29,0.2,0.61,0.34,0.98,0.41c0.99,0.18,1.95-0.26,2.49-1.04l177.07-32.19
		c0.47,2.35,2.32,4.28,4.81,4.73c1.93,0.35,3.81-0.28,5.14-1.51l24.41,25.42l-119.13,6.04C747.28,379.11,746.72,378.88,746.1,378.77
		z M713.7,381.16l-83.65,4.24l82.25-6.87C712.41,379.57,712.92,380.51,713.7,381.16z M717.46,401.22c-0.01,0.06-0.01,0.12-0.01,0.18
		l-54.14-6.64l54.29,5.98C717.55,400.9,717.49,401.05,717.46,401.22z M717.43,401.6c-0.09,0.87,0.03,1.73,0.36,2.49l-18.57-2.63
		c-0.37-0.26-0.79-0.45-1.27-0.53c-0.54-0.09-1.07-0.03-1.56,0.13l-70.58-10c0.3-0.05,0.59-0.17,0.83-0.34l20.6,2.27L717.43,401.6z
		 M821.04,421.79l-96.6-15.14c0.62-0.28,1.16-0.69,1.62-1.19l94.01,13.32C820.02,419.9,820.38,420.96,821.04,421.79z M719.03,405.8
		l-18.72-2.93c-0.16-0.44-0.42-0.84-0.77-1.16l18.36,2.6C718.19,404.87,718.57,405.38,719.03,405.8z M802.95,443.56l-193.89-53.63
		c-0.02-0.09-0.06-0.17-0.11-0.26l192.3,49.27c-0.02,0.07-0.05,0.14-0.06,0.22C800.88,440.9,801.62,442.57,802.95,443.56z
		 M607.37,389.46l-4.27-1.18c0.01-0.03,0.02-0.07,0.03-0.1l4.4,1.13C607.47,389.35,607.42,389.41,607.37,389.46z M761.66,443.8
		l-39.86-13.81c0.02-0.09,0.06-0.16,0.07-0.25c0.04-0.2,0.04-0.39,0.05-0.58l40.41,13.55C762.07,443.04,761.83,443.4,761.66,443.8z
		 M713.37,427.07l-56.24-19.48c-0.06-0.07-0.12-0.14-0.18-0.2l56.78,19.03C713.59,426.62,713.48,426.84,713.37,427.07z
		 M654.08,406.53l-9.68-3.35l9.92,3.33C654.24,406.51,654.16,406.52,654.08,406.53z M653.74,406.63c-1.04,0.33-1.87,1.16-2.07,2.25
		c-0.3,1.59,0.81,3.12,2.49,3.4c1.68,0.29,3.29-0.77,3.59-2.37c0.14-0.74-0.03-1.45-0.41-2.04l55.93,19.38
		c-0.11,0.28-0.2,0.58-0.26,0.9c-0.44,2.45,1.18,4.79,3.63,5.23c2.29,0.41,4.47-1,5.1-3.19l39.85,13.81
		c-0.09,0.23-0.17,0.47-0.22,0.72c-0.49,2.56,1.31,5.02,4.01,5.48c2.7,0.46,5.29-1.24,5.78-3.81c0.04-0.23,0.05-0.46,0.06-0.7
		l84.5,28.32c-0.02,0.1-0.05,0.2-0.07,0.3c-0.59,3.26,1.58,6.38,4.84,6.97c0.75,0.13,1.48,0.12,2.19-0.02l1.78,31.27
		c-2.07,0.15-3.92,1.37-4.88,3.2l-253.7-125.46l1.42,0.47c0.15,0.18,0.35,0.32,0.6,0.37c0.15,0.03,0.29,0.01,0.43-0.02l17.13,5.74
		L653.74,406.63z M868.56,563.11L675.54,436.88c0.5-0.42,0.86-0.99,0.99-1.66c0.3-1.59-0.81-3.12-2.49-3.4
		c-1.48-0.25-2.91,0.54-3.43,1.83l-67.91-44.41c0.01-0.01,0.01-0.02,0.02-0.03l0.66,0.22l136.36,73.22
		c-0.24,0.43-0.44,0.89-0.54,1.39c-0.49,2.56,1.31,5.02,4.01,5.48c2.7,0.46,5.29-1.24,5.78-3.81c0.49-2.56-1.31-5.02-4.01-5.48
		c-2.1-0.36-4.12,0.6-5.15,2.24L604.49,389.8l0,0l255.01,126.11c-0.23,0.48-0.41,0.99-0.5,1.54c-0.59,3.26,1.58,6.38,4.84,6.97
		c0.63,0.11,1.25,0.12,1.85,0.04l5.51,37.11C870.13,561.74,869.19,562.3,868.56,563.11z M819.41,654.25l0.71,82.3
		c-0.49,0.01-0.96,0.09-1.42,0.21l-51.96-121.32c0.72-0.33,1.35-0.85,1.81-1.51l48.68,32.6c-0.7,0.64-1.22,1.5-1.4,2.51
		C815.39,651.47,816.99,653.79,819.41,654.25z M764.08,615.78c0.87,0.16,1.71,0.04,2.47-0.26l51.95,121.3
		c-2.08,0.64-3.74,2.38-4.15,4.67c-0.42,2.35,0.59,4.63,2.41,5.94l-2.08,4.18c-0.47-0.22-0.97-0.4-1.51-0.49
		c-0.75-0.13-1.49-0.12-2.19,0.02L611.61,407.31c0.18-0.11,0.35-0.24,0.5-0.39l5.36,5.16l145.59,195.16
		c-1.32,0.59-2.33,1.79-2.6,3.31C760.01,613,761.63,615.34,764.08,615.78z M713.52,624.32l-15.02-31.89
		c0.77-0.35,1.43-0.91,1.9-1.62l15.27,30.7C714.71,622.19,713.95,623.16,713.52,624.32z M716.9,631.95l46.86,99.51
		c-0.63,0.28-1.2,0.65-1.69,1.11l-37.2-34.93c0.72-0.64,1.25-1.51,1.43-2.53c0.44-2.45-1.18-4.79-3.63-5.23
		c-0.55-0.1-1.09-0.08-1.61,0.02L621.3,433.48l72.49,151.41c-0.78,0.65-1.37,1.56-1.56,2.64c-0.44,2.45,1.18,4.79,3.63,5.23
		c0.86,0.16,1.71,0.04,2.46-0.26l15.12,32.1c-0.08,0.24-0.14,0.48-0.19,0.74C712.73,628.17,714.32,630.91,716.9,631.95z
		 M754.31,769.14c-0.81-0.15-1.61-0.05-2.33,0.22l-27.72-71.25c0.16-0.1,0.31-0.21,0.46-0.33l37.21,34.93
		c-0.81,0.8-1.39,1.82-1.61,2.99c-0.54,2.86,1.22,5.6,4.02,6.52l-9.44,27.08C754.7,769.24,754.51,769.18,754.31,769.14z
		 M659.14,717.16c-0.47-0.08-0.93-0.07-1.38-0.01l-46.44-304.5l1.36,2.83l55.83,216.5c-1.6,0.45-2.9,1.77-3.21,3.52
		c-0.44,2.45,1.18,4.79,3.63,5.23c0.63,0.11,1.24,0.09,1.82-0.05l25.95,100.64c-1.06,0.3-1.98,0.97-2.57,1.9l-31.9-19.37
		c0.25-0.44,0.45-0.92,0.55-1.44C663.21,719.94,661.58,717.6,659.14,717.16z M525.38,687.56c-1.79-0.32-3.52,0.47-4.49,1.87
		l74.74-288.25L525.55,687.6C525.49,687.59,525.44,687.57,525.38,687.56z M520.16,691.19c-0.03,0.14-0.02,0.27-0.03,0.41
		l-17.22,66.41c-0.08-0.02-0.15-0.05-0.23-0.07c-0.09-0.02-0.18-0.01-0.27-0.02l9.32-97.21c2.27,0.17,4.34-1.38,4.75-3.67
		c0.4-2.21-0.9-4.32-2.95-5.03l78.7-243.11c0.33-0.11,0.61-0.39,0.67-0.76c0.05-0.28-0.02-0.55-0.18-0.76l5.18-16.01
		c0.02,0,0.04,0.01,0.07,0.02l-77.45,298.71C520.35,690.45,520.23,690.8,520.16,691.19z M343.69,698.02c0.6-0.62,1.04-1.42,1.2-2.34
		c0.18-1.02-0.01-2.01-0.45-2.86l23.53-13.88c0.51,0.81,1.3,1.43,2.27,1.71l-8.11,30.84c-0.08-0.02-0.16-0.05-0.24-0.07
		c-1.46-0.26-2.87,0.22-3.87,1.16L343.69,698.02z M318.93,706.92l17.03-30.11c0.55,0.3,1.15,0.52,1.8,0.64
		c0.47,0.08,0.93,0.11,1.39,0.08l0.91,12.9c-1.96,0.18-3.65,1.63-4.01,3.66c-0.22,1.19,0.07,2.35,0.69,3.29l-16.4,10.84
		C319.97,707.69,319.49,707.25,318.93,706.92z M371.23,639.1c2.17,0.39,4.25-1.05,4.65-3.23c0.24-1.32-0.21-2.6-1.08-3.49
		l96.03-104.92c0.35,0.37,0.82,0.64,1.36,0.73c1.36,0.24,2.66-0.66,2.9-2.02c0.15-0.84-0.14-1.66-0.7-2.22l121.74-133.39
		c0.04,0.03,0.07,0.06,0.11,0.09l-0.07,0.09l-6.89,7.9c-0.47,0-0.89,0.32-0.98,0.8c-0.02,0.11-0.01,0.21,0.01,0.31L371.5,648.38
		c-0.51-0.43-1.13-0.74-1.83-0.87c-2.17-0.39-4.25,1.05-4.65,3.23c-0.39,2.17,1.05,4.25,3.23,4.64c2.17,0.39,4.25-1.05,4.65-3.23
		c0.25-1.4-0.26-2.75-1.24-3.65L588.37,400c0.01,0.03,0.02,0.06,0.04,0.09l-6.44,7.65c-0.4,0.07-0.73,0.38-0.8,0.8
		c-0.01,0.05,0,0.1,0,0.15L343.28,691.4c-0.57-0.46-1.24-0.8-2.01-0.94c-0.34-0.06-0.68-0.07-1.02-0.06l-0.91-12.89
		c2.63-0.23,4.89-2.18,5.38-4.91c0.37-2.07-0.36-4.07-1.78-5.42l26.48-28.93C369.93,638.67,370.54,638.98,371.23,639.1z
		 M455.61,535.88l127.3-131.81L456.98,536.7C456.63,536.3,456.17,536,455.61,535.88z M452.61,537.86c-0.05,0.28-0.04,0.56,0,0.83
		L417,575.57c-1.59,0.08-2.98,1.23-3.27,2.87c-0.03,0.19-0.04,0.38-0.04,0.56l-31.61,32.73c-0.5-0.4-1.09-0.7-1.77-0.82
		c-2.17-0.39-4.25,1.05-4.65,3.23c-0.22,1.23,0.16,2.42,0.91,3.3l-61.21,63.38c-0.61-0.56-1.37-0.97-2.25-1.13
		c-0.54-0.1-1.08-0.08-1.59,0.01l-7.2-35.62c2.71-0.6,4.84-3.04,4.71-6.17c-0.05-1.29-0.55-2.51-1.36-3.49l94.69-80.3
		c0.13,0.04,0.26,0.09,0.4,0.11c2.17,0.39,4.25-1.05,4.65-3.23c0.07-0.4,0.06-0.8,0.02-1.18L592.1,393.21l-58.93,53.89l-9.33,8.5
		c-0.22-0.12-0.46-0.22-0.73-0.26c-1.36-0.24-2.66,0.66-2.9,2.02c-0.09,0.49-0.02,0.98,0.16,1.41l-104.11,94.89l0.09,0.1
		c-0.55-0.52-1.24-0.9-2.04-1.04c-2.17-0.39-4.25,1.05-4.65,3.23c-0.22,1.22,0.15,2.41,0.9,3.29l-93.75,85.73
		c-0.48-0.51-1.08-0.91-1.76-1.14c-2.91-1-5.91,1.09-5.99,4.16c-0.05,1.92,1.2,3.71,3.01,4.34c2.91,1,5.91-1.09,5.99-4.16
		c0.03-1.13-0.4-2.21-1.12-3.04l93.75-85.73c0.57,0.6,1.32,1.05,2.19,1.2c2.17,0.39,4.25-1.05,4.65-3.23
		c0.23-1.26-0.17-2.47-0.96-3.36l103.91-95.02c0.35,0.65,0.97,1.14,1.75,1.28c1.36,0.24,2.66-0.66,2.9-2.02
		c0.18-1.01-0.27-1.99-1.08-2.53l9.25-8.46l62.48-56.95c0.02,0.02,0.05,0.04,0.08,0.06L455.37,535.84
		C454.07,535.68,452.85,536.56,452.61,537.86z M414.58,581.39l-32.17,30.63c-0.06-0.06-0.12-0.11-0.19-0.16l31.46-32.58
		C413.74,580.08,414.06,580.82,414.58,581.39z M235.88,624.22l15.46-20.44c0.35,0.25,0.73,0.46,1.14,0.6
		c1.9,0.65,3.84-0.02,4.97-1.41l3.88,3.01l-24.43,19.23C236.61,624.85,236.26,624.51,235.88,624.22z M257.59,602.82
		c0.53-0.71,0.86-1.6,0.89-2.59c0.05-1.92-1.2-3.71-3.01-4.34c-0.67-0.23-1.35-0.29-2-0.22l-0.86-6.3l29.11-16.98l14.03,3.49
		c-0.01,0.8,0.17,1.66,0.6,2.55l-34.85,27.43L257.59,602.82z M178.15,528.41c0.05-0.27,0.07-0.54,0.06-0.8l88.11-4.29
		c0.11,1.52,0.98,2.86,2.29,3.6l-17.78,33.7c-0.33-0.16-0.68-0.3-1.06-0.37c-1.77-0.32-3.46,0.59-4.24,2.1l-67.7-32.99
		C177.98,529.05,178.09,528.74,178.15,528.41z M554.34,406.73c1.09,0.2,2.13-0.53,2.32-1.61c0.02-0.12,0.03-0.23,0.03-0.35
		l38.11-15.78c0.05,0.11,0.11,0.21,0.17,0.31l-13.2,7.36c-0.02,0-0.03-0.02-0.05-0.02c-0.49-0.09-0.95,0.21-1.11,0.67l-59.1,32.97
		c-0.36-0.59-0.95-1.03-1.68-1.16c-1.36-0.24-2.66,0.66-2.9,2.02c-0.1,0.56,0,1.1,0.24,1.57l-26.82,14.97
		c-0.36-0.59-0.95-1.03-1.68-1.16c-1.36-0.24-2.66,0.66-2.9,2.02c-0.1,0.56,0,1.1,0.24,1.57l-121.03,67.53
		c-0.48-0.95-1.37-1.67-2.49-1.87c-1.9-0.34-3.72,0.92-4.07,2.82c-0.34,1.9,0.92,3.72,2.82,4.06s3.72-0.92,4.07-2.82
		c0.13-0.71,0.03-1.4-0.24-2.02l121.03-67.53c0.36,0.59,0.95,1.03,1.68,1.16c0.3,0.05,0.59,0.04,0.88-0.01L281.69,572.18
		l-28.73-7.14c0.01-0.05,0.03-0.1,0.04-0.15c0.31-1.72-0.54-3.37-1.99-4.18L268.8,527c0.37,0.19,0.77,0.34,1.2,0.42
		c2.45,0.44,4.79-1.19,5.23-3.63c0.15-0.85,0.04-1.67-0.25-2.42l278.3-115.19C553.56,406.45,553.92,406.65,554.34,406.73z
		 M556.57,404.1l38.1-15.37c0.01,0.03,0.02,0.06,0.03,0.08l-38.03,15.74C556.66,404.4,556.62,404.25,556.57,404.1z M580.64,388.11
		c-0.5-0.09-0.97,0.22-1.11,0.69l-67.13,6.26c0.02-0.06,0.04-0.12,0.05-0.18c0.2-1.09-0.53-2.13-1.61-2.32
		c-1.09-0.2-2.13,0.53-2.32,1.61c-0.08,0.44,0,0.87,0.18,1.24l-311.25,29.03c-0.13-0.26-0.3-0.5-0.49-0.72l14.44-15.52l61.36-13.92
		c0.37,1.47,1.57,2.67,3.16,2.96c2.17,0.39,4.25-1.05,4.65-3.23c0.04-0.23,0.05-0.46,0.05-0.69l271.43-5.36
		c-0.19,0.24-0.33,0.53-0.39,0.85c-0.2,1.09,0.53,2.13,1.61,2.32c1.09,0.2,2.13-0.53,2.32-1.61c0.11-0.6-0.07-1.19-0.43-1.62
		l29.26-0.58l8.66,0.21l-11.75,1.1C581.19,388.37,580.95,388.17,580.64,388.11z M170.41,393.78l41.13-39.15
		c0.64,1.1,1.72,1.93,3.07,2.18c0.9,0.16,1.78,0.04,2.56-0.29l5.05,11.19c-0.82,0.41-1.46,1.18-1.63,2.15
		c-0.11,0.63-0.02,1.24,0.23,1.78l-48.07,23.92C172.28,394.67,171.45,394,170.41,393.78z M219.59,323.8
		c0.12-0.68,0.12-1.34,0.02-1.99l43.22-7.48c0.08,0.38,0.23,0.75,0.45,1.07l-34.54,25.05c-0.55-1.4-1.78-2.5-3.38-2.79
		c-2.45-0.44-4.79,1.19-5.23,3.63c-0.26,1.43,0.21,2.82,1.11,3.81l-3.57,3.39c-0.44-0.26-0.93-0.46-1.47-0.56
		c-0.32-0.06-0.65-0.08-0.96-0.06l-1.12-19.17C216.79,328.52,219.09,326.55,219.59,323.8z M348.48,330.06l155.3,35.92l-29.05-6.39
		l-126.86-28.13C348.15,331.05,348.35,330.57,348.48,330.06z M716.64,282.09c2.27-1.02,3.28-3.68,2.27-5.94
		c-1.02-2.27-3.68-3.28-5.95-2.27s-3.28,3.68-2.27,5.94c0.13,0.29,0.28,0.55,0.46,0.8L602.64,384.26l-0.15,0.13
		c-0.11-0.15-0.24-0.29-0.36-0.43l32.96-42.91l19.72-25.37c0.17,0.07,0.35,0.13,0.54,0.17c1.36,0.24,2.66-0.66,2.9-2.02
		c0.13-0.72-0.07-1.42-0.48-1.96l54.24-69.78c1.7,1.39,4.1,1.79,6.24,0.83c3.02-1.35,4.38-4.9,3.02-7.93
		c-0.44-0.98-1.1-1.77-1.91-2.37l41.46-53.33l26.85,32.63c-1.98,1.68-2.7,4.53-1.59,7.02c0.24,0.54,0.56,1.03,0.93,1.46
		L606.82,380.55l104.47-99.78C712.54,282.34,714.73,282.95,716.64,282.09z M681.28,335.8c2.25,0.38,4.41-1.04,4.82-3.17
		c0.35-1.84-0.72-3.61-2.46-4.31L828.79,226.4c0.43,0.6,0.97,1.09,1.56,1.48l-25.47,40.28c-0.42-0.19-0.87-0.33-1.35-0.42
		c-3.26-0.59-6.38,1.58-6.97,4.84c-0.23,1.28-0.03,2.54,0.49,3.64l-74.49,41.68c-0.51-1.51-1.78-2.71-3.45-3.01
		c-2.45-0.44-4.79,1.19-5.23,3.63c-0.19,1.05,0.02,2.07,0.49,2.94l-51.48,29.58c-1.2,0.21-2.26,0.83-3.01,1.73l-13.24,7.61
		l-22.98,12.86c0.07-0.77-0.45-1.47-1.22-1.61c-0.18-0.03-0.35-0.03-0.52,0l55.97-39.3C678.09,334.03,679.42,335.48,681.28,335.8z
		 M839.48,337.68c-3.26-0.59-6.38,1.58-6.97,4.84c-0.13,0.69-0.12,1.38-0.01,2.04l-176.91,32.16c0.13-0.23,0.23-0.48,0.28-0.75
		c0.25-1.36-0.66-2.66-2.02-2.9s-2.66,0.66-2.9,2.02c-0.16,0.9,0.19,1.77,0.83,2.33l-25.6,4.65c-0.05-0.43-0.36-0.79-0.8-0.87
		c-0.54-0.1-1.06,0.26-1.16,0.81c-0.03,0.14-0.02,0.28,0.02,0.42l-20.29,3.69l248.67-80.61c0.5,1.45,1.53,2.67,2.92,3.38
		l-14.55,29.29C840.52,337.95,840.02,337.77,839.48,337.68z M617.89,389.51c0.18,0.03,0.35,0,0.51-0.06l5.36,0.66
		c0.02,0.03,0.03,0.07,0.06,0.1l-14.43-1.59l-6.13-0.96c0-0.01,0-0.01,0-0.02l0.24-0.02l14,1.72
		C617.62,389.42,617.75,389.48,617.89,389.51z M694.68,584.3l-44.45-94.38l46.72,93.94C696.15,583.81,695.37,583.96,694.68,584.3z
		 M694.5,584.4c-0.2,0.11-0.38,0.22-0.56,0.36l-73.6-153.74l-2.14-5.5l27.85,56L694.5,584.4z M611.3,408.77l-0.34-1.16
		c0.02-0.01,0.03-0.01,0.05-0.02l0.85,2.19L611.3,408.77z M612.41,411.19l4,10.28l-3.35-6.75l-1.49-5.07L612.41,411.19z
		 M610.6,407.92l0.24,0.43l1.03,3.99l-0.85-1.72L610.6,407.92z M610.72,410.03l-1.14-2.3c0.27,0.04,0.54,0.04,0.8,0.01
		L610.72,410.03z M611.58,410.44l0.96,3.26l-0.25-0.5L611.58,410.44z M612.87,414.8l0.47,1.6l-0.47-0.99l-0.33-1.27L612.87,414.8z
		 M613.38,415.83l3.84,7.71l1.98,5.09l-5.32-11.11L613.38,415.83z M617.39,423.44l-4.26-10.95l2.79,5.05l26.13,55.49L617.39,423.44z
		 M612.58,411.09l-1.39-3.56c0,0,0,0,0.01,0l3.4,7.21L612.58,411.09z M607.4,403.35l-6.07-12.19l6.44,11.65
		C607.63,402.97,607.5,403.15,607.4,403.35z M512.85,651.82c-2.45-0.44-4.79,1.19-5.23,3.63c-0.34,1.86,0.53,3.65,2.03,4.6
		l-46.3,77.37c-0.16-0.09-0.32-0.18-0.49-0.25L591,408.35c0.13,0.3,0.38,0.55,0.73,0.61c0.09,0.02,0.18,0,0.27-0.01l-78.66,243.01
		C513.17,651.91,513.02,651.85,512.85,651.82z M586.44,418.08l9.13-22.01c0,0,0.01,0,0.01,0l-4.38,11.23
		c-0.13,0.14-0.23,0.3-0.27,0.5c-0.01,0.06,0,0.12,0,0.19l-4.32,11.09c0,0,0,0,0,0C586.67,418.72,586.6,418.37,586.44,418.08z
		 M595.63,394.11c-0.09-0.02-0.18,0-0.27,0.01l1.68-3c0.1,0.04,0.21,0.08,0.31,0.11l-1.28,3.09
		C595.95,394.22,595.8,394.14,595.63,394.11z M343.43,691.52l237.76-282.55c0.05,0.18,0.15,0.33,0.29,0.46L373.75,673.65
		c-0.48-0.36-1.04-0.63-1.67-0.74c-2.17-0.39-4.25,1.05-4.65,3.23c-0.17,0.95,0.02,1.87,0.46,2.64l-23.53,13.88
		C344.11,692.23,343.8,691.85,343.43,691.52z M404.18,546.37c-2.17-0.39-4.25,1.05-4.65,3.23c-0.35,1.95,0.78,3.82,2.59,4.46
		l-94.58,80.21c-0.58-0.66-1.3-1.2-2.13-1.55c-0.9-0.38-1.81-0.51-2.69-0.47l-3.48-51.98c3.52,0.79,6.91-2.72,4.88-6.9
		l277.07-174.83c0.06,0.02,0.11,0.06,0.18,0.07c0.12,0.02,0.24,0.01,0.36-0.01L353.84,550.78c-0.02,0-0.03-0.01-0.05-0.01
		c-1.87-0.34-3.66,0.89-4.04,2.75l-18.81,12.56c-0.51-0.72-1.29-1.25-2.23-1.42c-1.9-0.34-3.72,0.92-4.07,2.82
		c-0.34,1.9,0.92,3.72,2.82,4.06c1.9,0.34,3.72-0.92,4.07-2.82c0.16-0.89-0.04-1.76-0.49-2.47l18.67-12.47
		c-0.23,1.83,1,3.55,2.84,3.88c1.9,0.34,3.72-0.92,4.07-2.82c0.32-1.8-0.79-3.5-2.52-3.98l225.49-150.57l-222.2,151.12l0.11,0.17
		l237.84-161.75c0.01,0.02,0.03,0.03,0.04,0.05L415.15,527.59c-0.32-0.2-0.68-0.35-1.07-0.42c-1.63-0.29-3.19,0.79-3.48,2.42
		c-0.09,0.49-0.04,0.96,0.1,1.41l-71.92,54.96c-0.5-0.54-1.16-0.94-1.94-1.08c-1.9-0.34-3.72,0.92-4.07,2.82
		c-0.34,1.9,0.92,3.72,2.82,4.06s3.72-0.92,4.07-2.82c0.19-1.05-0.12-2.07-0.75-2.84l71.86-54.91c0.36,0.94,1.19,1.68,2.26,1.88
		c1.63,0.29,3.19-0.79,3.48-2.42c0.11-0.64,0.01-1.26-0.24-1.8L589,395.08L367.77,571.93c-0.51-0.6-1.2-1.04-2.04-1.19
		c-1.9-0.34-3.72,0.92-4.07,2.82c-0.34,1.9,0.92,3.72,2.82,4.06c1.9,0.34,3.72-0.92,4.07-2.82c0.18-1-0.09-1.97-0.66-2.72
		l223.72-178.84L406.44,547.6l0.13,0.15l174.56-145.51L407.39,549.59C407.1,548,405.86,546.67,404.18,546.37z M281.97,572.25
		l236.92-138.22c0.02,0,0.04,0.01,0.07,0.02c1.25,0.22,2.43-0.52,2.81-1.7L580.64,398c0.07,0.17,0.18,0.33,0.33,0.44L304.02,573.2
		c-3.31-3.55-8.05-1.35-8.27,2.47L281.97,572.25z M490.45,447.85l26.82-14.97c0.3,0.49,0.77,0.88,1.35,1.07l-28.48,16.61
		c0.27-0.32,0.47-0.71,0.54-1.15C490.79,448.86,490.69,448.32,490.45,447.85z M580.57,397.57c0,0.08-0.01,0.16,0,0.24l-58.73,34.26
		c0-0.01,0.01-0.03,0.01-0.04c0.1-0.56,0-1.1-0.24-1.57L580.57,397.57z M554.97,387.71c-0.27-0.25-0.61-0.43-1-0.5
		c-0.67-0.12-1.32,0.11-1.77,0.56l-271.6,5.36c-0.08-1.83-1.4-3.42-3.28-3.76c-0.61-0.11-1.22-0.06-1.78,0.1l-2.93-9.56l182.69,4.35
		c-0.02,1.2,0.83,2.27,2.05,2.49c1.36,0.24,2.66-0.66,2.9-2.02c0.02-0.12,0.02-0.24,0.03-0.35l63.26,1.51
		c0.31,1.06,1.18,1.9,2.33,2.11c1.48,0.27,2.88-0.6,3.36-1.98l50.59,1.21L554.97,387.71z M224.08,367.44
		c-0.59-0.11-1.16-0.03-1.67,0.18l-5.06-11.19c1.26-0.6,2.22-1.77,2.49-3.25c0.33-1.84-0.5-3.61-1.97-4.57l3.51-3.34
		c0.63,0.63,1.44,1.09,2.39,1.26c1,0.18,1.97,0,2.81-0.42l10.37,29.04c-0.85,0.31-1.58,0.9-2.05,1.68l-8.71-5.04
		c0.14-0.27,0.26-0.56,0.32-0.88C226.79,369.29,225.71,367.73,224.08,367.44z M343.34,333.38c1.65,0.3,3.23-0.36,4.24-1.55
		l127.11,27.96l39.2,8.69c0.11,1.09,0.91,2.02,2.03,2.22c1.06,0.19,2.07-0.32,2.59-1.19l11.96,2.65l44.4,10.27l-123.91-22.86
		c-0.73-1.21-1.98-2.12-3.54-2.39c-1.51-0.26-2.97,0.15-4.08,0.98l-152.92-28.21c0.29-1.69-0.9-3.29-2.68-3.6
		c-1.22-0.21-2.39,0.26-3.13,1.1l-16.39-12.03c0.19-0.28,0.36-0.59,0.44-0.94l71.14,15.65
		C340.24,331.75,341.57,333.06,343.34,333.38z M620.54,138.9l0.75,0.54l-0.39,4.33l-2.06-3.06
		C619.54,140.22,620.12,139.6,620.54,138.9z M621.48,139.58l27.93,20.08c-0.95,1.39-1.2,3.22-0.46,4.87
		c0.82,1.82,2.59,2.9,4.46,2.94v19.52c-0.78-0.09-1.59,0-2.36,0.35c-0.21,0.09-0.39,0.21-0.58,0.33l-29.39-43.63L621.48,139.58z
		 M810.37,110.51l-40.52,9.14l-3.34-14.85l43.75,4.03C810.22,109.39,810.25,109.95,810.37,110.51z M810.42,110.7
		c0.09,0.35,0.2,0.7,0.35,1.03c0.22,0.48,0.49,0.92,0.81,1.31l-36.37,30.39l-5.31-23.59L810.42,110.7z M775.03,143.58l-22.32,18.65
		c-0.6-0.69-1.39-1.16-2.26-1.39l9.05-38.65l10.2-2.3L775.03,143.58z M631.39,369.16l-7.8,4.48c0.02-0.04,0.03-0.09,0.04-0.14
		L631.39,369.16z M714.89,322.2l-51.43,28.78c-0.02,0-0.03,0-0.04,0.01l51.08-29.35C714.6,321.84,714.74,322.03,714.89,322.2z
		 M717.52,323.75c2.45,0.44,4.79-1.19,5.23-3.63c0.13-0.7,0.07-1.38-0.12-2.03l74.51-41.7c0.83,1.6,2.35,2.81,4.26,3.15
		c2.68,0.48,5.26-0.9,6.43-3.22l16.09,5.72c-0.06,0.17-0.12,0.35-0.15,0.53c-0.15,0.84-0.02,1.67,0.31,2.39l-98.09,48.58
		c-0.62-1.19-1.75-2.09-3.17-2.35c-2.45-0.44-4.79,1.19-5.23,3.63c-0.15,0.85-0.04,1.69,0.25,2.44l-36.87,15.44
		c-0.41-0.33-0.9-0.58-1.47-0.68c-0.56-0.1-1.1-0.03-1.6,0.14c-0.4-0.32-0.89-0.56-1.45-0.66c-1.68-0.29-3.29,0.77-3.59,2.37
		c-0.14,0.74,0.03,1.46,0.42,2.05l-5.26,2.2c0.31-0.48,0.55-1.03,0.66-1.62c0.49-2.56-1.31-5.02-4.01-5.48
		c-0.27-0.05-0.53-0.05-0.8-0.06l51.14-28.62C715.66,323.06,716.51,323.57,717.52,323.75z M659.42,353.47
		c-0.24,0.42-0.43,0.87-0.52,1.37c-0.48,2.54,1.28,4.97,3.95,5.46l-57.65,24.14l17.13-9.84c0.44-0.04,0.84-0.27,1.09-0.62
		l23.41-13.45L659.42,353.47z M615.58,382.12l-12.35,4c-0.02-0.13-0.06-0.25-0.1-0.37l11.74-4.22
		C614.99,381.82,615.24,382.06,615.58,382.12z M594.67,394.49l1.01-1.62l-0.69,1.35C594.86,394.29,594.75,394.38,594.67,394.49z
		 M589.98,398.94l4.95-6.3l0.69-0.81l-5.41,7.47C590.16,399.16,590.08,399.05,589.98,398.94z M415.32,527.71l159.03-121.53
		L416.16,528.67C415.95,528.3,415.67,527.97,415.32,527.71z M582.33,397.02l11.93-6.96l-11.73,7.4
		C582.5,397.3,582.43,397.15,582.33,397.02z M448.24,366.56c1.65-0.57,2.95-1.9,3.31-3.65l133.66,21.91l0.07,0.02
		c-0.03,0.05-0.05,0.12-0.07,0.18L448.24,366.56z M654.73,195.54c0.05-0.02,0.1-0.06,0.15-0.09l8.52,15.7l-31.2,85.33
		c-0.45,0.42-0.77,0.98-0.89,1.64c-0.05,0.29-0.05,0.57-0.02,0.85l-30.68,83.91c-0.04-0.02-0.08-0.05-0.13-0.06l51.75-186.94
		C653.06,196,653.92,195.9,654.73,195.54z M688.2,131.63l4.4-0.31l-1.46,4l-2.3-1.17L688.2,131.63z M688.6,134.02l-4.16-2.12
		l3.55-0.25L688.6,134.02z M680.53,101.16c0.82-0.37,1.47-0.94,1.97-1.62l15.97,15.72l-5.79,15.85l-4.53,0.32l-7.73-30.24
		C680.45,101.18,680.49,101.17,680.53,101.16z M709.84,236.77l-8.16-0.89l9.4-13.91l2.53,9.9c-0.09,0.04-0.18,0.06-0.27,0.1
		C711.34,232.87,710.08,234.73,709.84,236.77z M713.8,231.8l-2.57-10.05l35.67-52.79c0.14,0.09,0.28,0.16,0.42,0.23l-29.61,62.58
		C716.48,231.35,715.11,231.33,713.8,231.8z M745.31,163.01l-54-27.61l1.5-4.11l20.47-1.45l32.77,32.25
		C745.79,162.36,745.54,162.67,745.31,163.01z M692.89,131.09l5.73-15.68l14.47,14.24L692.89,131.09z M691.07,135.5l-1.11,3.02
		l-1.06-4.13L691.07,135.5z M691.25,135.59l53.96,27.59c-0.07,0.12-0.15,0.21-0.22,0.34c-0.57,2.42,0.33,4.3,1.76,5.32l-35.58,52.65
		l-21.12-82.62L691.25,135.59z M711.02,221.71l-9.56,14.14l-21.55-2.35c0.06-0.74-0.03-1.5-0.36-2.22
		c-1.02-2.27-3.68-3.28-5.95-2.27c-0.08,0.03-0.14,0.08-0.21,0.12l-9.77-18l26.3-71.93L711.02,221.71z M679.9,266.49
		c-1.98,0.89-3,3.02-2.56,5.06l-52.72,78.02c-0.23-0.17-0.51-0.3-0.81-0.35c-1.09-0.2-2.13,0.53-2.32,1.61
		c-0.15,0.82,0.23,1.62,0.9,2.04l-17.69,26.19c-0.09-0.38-0.39-0.69-0.8-0.76c-0.26-0.05-0.51,0.02-0.72,0.15l70.36-141.28
		c1.15,0.54,2.5,0.61,3.75,0.05c1.48-0.66,2.41-2.03,2.61-3.52l21.44,2.34l-20.37,30.14C680.61,266.25,680.25,266.34,679.9,266.49z
		 M677.63,272.44c0.4,0.89,1.06,1.58,1.84,2.04l-25.6,35.84c-0.18-0.13-0.38-0.22-0.61-0.26c-0.82-0.15-1.6,0.4-1.74,1.21
		c-0.11,0.59,0.15,1.16,0.61,1.49l-26.86,37.61c-0.12-0.26-0.29-0.48-0.5-0.67l52.64-77.9
		C677.48,272.01,677.54,272.23,677.63,272.44z M632.57,301.12l-31.49,81.08l-0.06,0.11l30.33-82.95
		C631.54,300.09,631.97,300.71,632.57,301.12z M594.37,386.45c0,0.02,0,0.03,0,0.05l-0.32-0.09L594.37,386.45z M601.62,383.49
		c-0.2-0.16-0.42-0.31-0.65-0.43l0.29-0.75l1.48-2.97c0.02,0.45,0.34,0.85,0.8,0.93c0.12,0.02,0.23,0.01,0.34-0.01l-0.69,1.02
		L601.62,383.49z M623.1,353.16c0.06,0.01,0.11,0.01,0.17,0.01l-15.6,21.85l14.9-22.05C622.73,353.05,622.91,353.12,623.1,353.16z
		 M673.22,229.23c-1.98,1.13-2.84,3.59-1.88,5.72c0.43,0.96,1.16,1.67,2.02,2.13l-71.3,143.17l30.69-79.03
		c0.3,0.18,0.62,0.31,0.98,0.38c1.63,0.29,3.19-0.79,3.48-2.42c0.29-1.63-0.79-3.19-2.42-3.48c-0.83-0.15-1.65,0.06-2.28,0.52
		l31.02-84.84L673.22,229.23z M588.97,385.23l-1.97-0.32c-0.01-0.01-0.01-0.03-0.02-0.04L588.97,385.23z M585.78,384.44l-6.52-1.2
		l-27.33-6.32l33.88,7.51C585.8,384.43,585.79,384.43,585.78,384.44z M585.51,384.59c-0.02,0.02-0.04,0.04-0.06,0.06l-0.19-0.03
		l-1.64-0.38L585.51,384.59z M582.21,384.12l-130.62-21.41c0.17-1.04-0.03-2.05-0.5-2.92l128.14,23.64L582.21,384.12z
		 M587.11,385.25l0.13,0.03l-0.13-0.02C587.11,385.26,587.11,385.26,587.11,385.25z M588.27,385.32l2.82,0.46l0.16,0.05l-1.88-0.25
		L588.27,385.32z M592.62,386.21l1.73,0.49c0,0.01,0,0.02,0,0.03l-2.9-0.67L592.62,386.21z M592.68,391.29l-10.29,6.87
		c0.07-0.11,0.12-0.22,0.14-0.36c0.01-0.04,0-0.07,0-0.11L592.68,391.29z M589.83,398.8c-0.02-0.01-0.04-0.02-0.06-0.03l1.27-1.51
		L589.83,398.8z M596.86,391.02C596.86,391.02,596.86,391.02,596.86,391.02l-0.07,0.15L596.86,391.02z M603.53,385.4l0.27-0.16
		l11.15-4.67c-0.08,0.12-0.14,0.25-0.17,0.39c-0.02,0.13-0.02,0.26,0.01,0.38L603.53,385.4z M621.92,374.59c0.01,0,0.01,0,0.02,0
		l-18.23,10.48l-0.71,0.3c-0.03-0.09-0.06-0.17-0.1-0.26l18.87-10.56C621.82,374.56,621.87,374.58,621.92,374.59z M601.91,383.73
		l12.34-15.87l-12.25,15.96C601.97,383.78,601.94,383.75,601.91,383.73z M602.64,382.46l0.72-1.06l0.92-1.29
		c0.18-0.12,0.31-0.31,0.38-0.53l18.85-26.39c0.93-0.02,1.75-0.69,1.92-1.65c0.06-0.33,0.03-0.65-0.07-0.95l26.95-37.74
		c0.13,0.07,0.27,0.12,0.42,0.15c0.2,0.04,0.4,0.03,0.59-0.01c-0.16,1.01,0.31,1.98,1.13,2.5l-19.4,25.27L602.64,382.46z
		 M656.23,310.93c-0.63-0.11-1.25,0.03-1.76,0.34c-0.06-0.32-0.21-0.61-0.44-0.83l25.62-35.88c1.18,0.62,2.61,0.72,3.92,0.14
		c2.27-1.02,3.28-3.68,2.27-5.94c-0.82-1.83-2.72-2.83-4.61-2.61l20.33-30.08l8.26,0.9c-0.08,0.97,0.08,1.98,0.51,2.93
		c0.37,0.82,0.9,1.51,1.53,2.06l-54.22,69.76C657.27,311.32,656.8,311.03,656.23,310.93z M717.91,231.84l29.6-62.56
		c1.43,0.64,3.16,0.52,4.6-0.57l8.58,10.43l-41.49,53.38C718.8,232.24,718.36,232.01,717.91,231.84z M750.26,160.79
		c-1.35-0.29-2.85,0.04-4.07,1.16l-32.64-32.13l11.72-0.83c0.06,0.65,0.22,1.3,0.5,1.93c1.35,3.02,4.9,4.38,7.93,3.02
		c2.62-1.17,3.98-4,3.42-6.7l22.17-5L750.26,160.79z M725.26,128.79l-11.89,0.85l-14.66-14.43l2.05-5.6l25.35,15.78
		C725.49,126.4,725.19,127.59,725.26,128.79z M698.54,115.05l-15.92-15.67c0.17-0.25,0.31-0.52,0.43-0.79l17.52,10.91L698.54,115.05
		z M680.23,101.26l7.72,30.19l-3.84,0.27l-12.36-6.32l6.6-23.82C678.97,101.59,679.61,101.49,680.23,101.26z M683.72,131.74l-14,1
		l1.98-7.14L683.72,131.74z M684.06,131.92l4.61,2.36l1.17,4.58L663.5,210.9l-8.44-15.55c2.03-1.12,2.91-3.61,1.94-5.76
		c-0.49-1.09-1.36-1.88-2.39-2.31l15.04-54.34L684.06,131.92z M654.43,187.21c-0.26-0.1-0.53-0.17-0.81-0.21v-19.52
		c0.65-0.01,1.31-0.15,1.94-0.44c2.52-1.13,3.65-4.09,2.52-6.6c-0.55-1.22-1.53-2.11-2.68-2.58l9.42-24.57l4.63-0.33L654.43,187.21z
		 M655.21,157.78c-0.83-0.3-1.74-0.38-2.64-0.2l-3.7-17.32c0.37-0.09,0.74-0.21,1.1-0.37c2.33-1.04,3.66-3.39,3.53-5.8l11.1-0.79
		L655.21,157.78z M642.04,136.87c1.16,2.6,3.95,3.96,6.63,3.43l3.7,17.32c-0.3,0.07-0.61,0.17-0.9,0.3
		c-0.8,0.36-1.45,0.92-1.94,1.58l-28.03-20.15l2.51-27.88l19.15,18.82C641.54,132,641.02,134.58,642.04,136.87z M650.3,187.76
		c-1.72,1.21-2.41,3.51-1.51,5.51c0.62,1.39,1.86,2.3,3.25,2.57l-51.75,186.91c-0.19-0.07-0.39-0.13-0.6-0.17l0.96-5.53
		c0.42-0.06,0.77-0.36,0.85-0.8c0.08-0.44-0.15-0.85-0.53-1.05l2.79-16.12c0.17,0.07,0.34,0.13,0.53,0.16
		c1.36,0.24,2.66-0.66,2.9-2.02c0.25-1.36-0.66-2.66-2.02-2.9c-0.2-0.04-0.39-0.04-0.59-0.03l18.54-107.21
		c0.76,0.08,1.55-0.02,2.3-0.35c2.27-1.02,3.28-3.68,2.27-5.94c-1.02-2.27-3.68-3.28-5.95-2.27c-2.27,1.02-3.28,3.68-2.27,5.94
		c0.65,1.45,1.98,2.38,3.45,2.6l-18.55,107.25c-1.04,0.15-1.91,0.93-2.11,2.02c-0.2,1.1,0.36,2.15,1.3,2.65l-2.79,16.14
		c-0.03-0.01-0.06-0.03-0.09-0.03c-0.14-0.02-0.27-0.02-0.4,0.01l5.17-54.53c0.47,0.03,0.95-0.04,1.41-0.24
		c1.51-0.68,2.19-2.45,1.51-3.96c-0.49-1.09-1.54-1.73-2.65-1.76l15.32-170.26L650.3,187.76z M605.26,320.56l-1.41,14.88l1.34-14.88
		C605.22,320.56,605.24,320.56,605.26,320.56z M600.12,376.98c0.07,0.03,0.14,0.07,0.22,0.09c0.04,0.01,0.07,0,0.11,0l-0.7,4.07
		l0.32-3.6L600.12,376.98z M592.38,383.17l0.46,0.34l-0.58-0.31l-0.46-0.31l-0.11-0.14L592.38,383.17z M591.21,382.49l-0.36-0.24
		l0.32,0.19L591.21,382.49z M590.33,382.14l-4.46-2.89l1.7,1.03L590.33,382.14z M264.66,316.52c1.32,0.5,2.67,0.04,3.44-0.95
		l16.37,12.02c-0.28,0.37-0.5,0.8-0.59,1.28c-0.33,1.71,0.87,3.34,2.67,3.65c1.75,0.3,3.42-0.77,3.81-2.4l152.76,28.18
		c-0.85,0.7-1.48,1.66-1.7,2.8c-0.36,1.9,0.5,3.73,2.04,4.8L293.3,345.68c0.1-0.82-0.02-1.73-0.41-2.68
		c-0.14-0.33-0.35-0.63-0.61-0.88c-3.92-3.65-9.46,0.15-7.55,5.08l-16.97,6.86c-0.03-0.1-0.06-0.19-0.1-0.29
		c-0.07-0.16-0.18-0.32-0.31-0.44c-1.92-1.87-4.47-0.98-5.17,0.94l-33.34-10.88c0.05-0.16,0.11-0.32,0.14-0.5
		c0.14-0.78,0.05-1.54-0.19-2.24l34.59-25.09C263.72,315.99,264.15,316.33,264.66,316.52z M228.79,343.58l33.32,10.88
		c-0.2,0.69-0.17,1.51,0.21,2.37c0.06,0.13,0.15,0.24,0.24,0.35l-22.1,18.35c-0.43-0.28-0.92-0.48-1.45-0.57
		c-0.65-0.12-1.29-0.05-1.88,0.13l-10.38-29.08C227.68,345.48,228.42,344.64,228.79,343.58z M240.63,375.65l22.07-18.32
		c0.98,0.91,2.11,1.13,3.07,0.87l6.58,21.5l-30.06-0.72C242.32,377.64,241.68,376.41,240.63,375.65z M237.59,382.83
		c2.17,0.39,4.25-1.05,4.65-3.23c0.03-0.14,0.02-0.28,0.03-0.42l30.14,0.72l2.95,9.63c-1.34,0.45-2.41,1.58-2.68,3.07
		c-0.09,0.51-0.08,1.01,0.02,1.49l-61.07,13.85l24.15-25.97C236.29,382.39,236.9,382.7,237.59,382.83z M529.3,385.82
		c0.02-0.08,0.05-0.16,0.07-0.25c0.29-1.63-0.79-3.19-2.42-3.48c-1.63-0.29-3.19,0.79-3.48,2.42c-0.07,0.4-0.06,0.8,0.02,1.17
		l-63.19-1.51c-0.05-1.14-0.88-2.14-2.05-2.35c-1.36-0.24-2.66,0.66-2.9,2.02c-0.01,0.07-0.01,0.14-0.02,0.21l-182.77-4.35
		l-6.6-21.58c1.43-0.49,2.42-2.04,1.87-3.87l16.97-6.86c0.14,0.31,0.33,0.6,0.58,0.83c3.14,2.93,7.33,1.06,7.88-2.34l150.62,20.29
		c0.52,0.29,1.09,0.51,1.71,0.62c0.76,0.13,1.51,0.08,2.21-0.09l137.35,18.51c-0.08,0.53,0.27,1.04,0.81,1.14
		c0.54,0.1,1.06-0.26,1.16-0.81c0-0.02,0-0.04,0-0.07l2.21,0.3l5.01,1.16c0,0,0,0.01,0,0.01l-9.92,0.2L529.3,385.82z M594.32,387.14
		c0,0.08,0.02,0.15,0.03,0.23l-5.37-0.13L594.32,387.14z M582.18,396.87c-0.05-0.04-0.1-0.08-0.16-0.11l8.13-4.54L582.18,396.87z
		 M589.58,398.7c-0.02-0.01-0.04-0.02-0.06-0.02l2.17-2.49L589.58,398.7z M588.52,400.26c0.03,0.03,0.06,0.06,0.09,0.09l-5.91,7.52
		c-0.11-0.07-0.23-0.12-0.37-0.15c-0.03-0.01-0.06,0-0.09,0L588.52,400.26z M370.66,680.78c2.17,0.39,4.25-1.05,4.65-3.23
		c0.27-1.47-0.32-2.89-1.4-3.78l207.73-264.21c0.1,0.06,0.22,0.11,0.34,0.14c0.54,0.1,1.06-0.26,1.16-0.81
		c0.06-0.34-0.07-0.65-0.29-0.87l5.92-7.53c0.1,0.06,0.21,0.11,0.33,0.13c0.05,0.01,0.1,0,0.16,0l-225.6,311.56
		c-0.39-0.27-0.84-0.47-1.32-0.61l8.11-30.84C370.52,680.74,370.58,680.76,370.66,680.78z M363.81,712.3l225.7-311.7
		c0.37-0.09,0.68-0.39,0.75-0.79c0.01-0.08,0-0.16,0-0.24l6.3-8.71c0.03,0.02,0.07,0.04,0.1,0.05L409.38,690.96
		c-0.33-0.22-0.71-0.37-1.12-0.45c-1.63-0.29-3.19,0.79-3.48,2.42c-0.13,0.7,0.01,1.38,0.33,1.96l-10.46,6.13
		c-0.66-0.86-1.61-1.49-2.76-1.69c-2.45-0.44-4.79,1.19-5.23,3.63c-0.16,0.91-0.04,1.81,0.3,2.59l-21.71,8.58
		C364.94,713.4,364.44,712.77,363.81,712.3z M394.77,701.17l10.43-6.11c0.43,0.69,1.13,1.2,1.99,1.35c0.36,0.06,0.71,0.05,1.04-0.01
		l3.96,19.09c-1,0.23-1.87,0.81-2.51,1.61l-14.74-11.09c0.26-0.44,0.46-0.93,0.56-1.47C395.73,703.32,395.43,702.12,394.77,701.17z
		 M414.01,715.45c-0.55-0.1-1.09-0.08-1.61,0.02l-3.96-19.1c1.12-0.27,2.03-1.17,2.25-2.38c0.21-1.15-0.28-2.25-1.14-2.91
		l185.05-296.46c-0.05,0.09-0.1,0.18-0.12,0.29c-0.02,0.1-0.01,0.2,0.01,0.3l-0.48,0.93L415.3,715.92
		C414.9,715.71,414.48,715.54,414.01,715.45z M592.09,406.99c-0.21-0.04-0.41,0.01-0.59,0.1l4.32-11.08
		c0.25-0.1,0.45-0.29,0.56-0.55l-3.81,11.78C592.42,407.12,592.27,407.02,592.09,406.99z M596.44,395.23
		c0.03-0.21-0.02-0.4-0.1-0.57l1.3-3.35c0.02,0.01,0.04,0.01,0.06,0.02L596.44,395.23z M604.41,389.54l2.25,0.78l-2.1-0.7
		L604.41,389.54z M603.23,387.85l0.52,0.08L603.23,387.85C603.22,387.86,603.22,387.86,603.23,387.85z M852.56,305.3l-236.1,76.53
		c0.14-0.14,0.25-0.31,0.29-0.51c0.03-0.16,0.01-0.31-0.03-0.45l12.16-4.38c0.15,0.21,0.37,0.37,0.65,0.42
		c0.54,0.1,1.06-0.26,1.16-0.81c0.02-0.09,0-0.18-0.01-0.26L773.4,324.5c0.31,0.77,0.99,1.36,1.87,1.52
		c1.36,0.24,2.66-0.66,2.9-2.02c0.25-1.36-0.66-2.66-2.02-2.9c-1.36-0.24-2.66,0.66-2.9,2.02c-0.07,0.41-0.03,0.82,0.09,1.19
		l-142.69,51.33c-0.11-0.35-0.39-0.63-0.77-0.7c-0.54-0.1-1.06,0.26-1.16,0.81c-0.04,0.2,0.01,0.38,0.08,0.56l-12.16,4.38
		c-0.14-0.26-0.38-0.47-0.69-0.52c0,0,0,0,0,0l47.32-19.81c1.81,0.19,3.52-0.57,4.54-1.9l5.6-2.34c0.45,0.6,1.14,1.04,1.97,1.18
		c0.56,0.1,1.1,0.03,1.6-0.14c0.4,0.32,0.89,0.56,1.45,0.66c1.68,0.29,3.29-0.77,3.59-2.37c0.19-0.98-0.17-1.93-0.85-2.58
		l36.76-15.39c0.59,1.31,1.79,2.33,3.31,2.6c2.45,0.44,4.79-1.19,5.23-3.63c0.17-0.95,0.02-1.89-0.36-2.7l98.09-48.58
		c0.55,1.05,1.55,1.85,2.81,2.08c1.59,0.29,3.11-0.41,3.98-1.65l22.27,14.75c-0.41,0.64-0.71,1.37-0.85,2.16
		C852.22,303.46,852.29,304.42,852.56,305.3z M823.97,281.86l-16.06-5.71c0.21-0.45,0.37-0.93,0.46-1.44
		c0.49-2.71-0.93-5.33-3.3-6.46l25.45-40.26c0.74,0.45,1.57,0.73,2.43,0.83l-4.96,50.5C826.23,279.19,824.6,280.23,823.97,281.86z
		 M621.53,374.45l-17.7,9.91l17.07-11.98c-0.08,0.14-0.15,0.3-0.18,0.47C620.59,373.52,620.94,374.16,621.53,374.45z M789.1,211.02
		c-0.47,0.21-0.89,0.48-1.28,0.78l-26.88-32.66l17.13-22.04l12.06,53.57C789.79,210.75,789.44,210.86,789.1,211.02z M760.82,178.98
		l-8.55-10.39c0.53-0.44,1.02-1.01,1.42-1.74c0.43-1.85,0.02-3.39-0.84-4.47l22.23-18.57l2.94,13.04L760.82,178.98z M775.26,143.66
		l36.45-30.45c0.04,0.05,0.08,0.09,0.13,0.14l-33.65,43.29L775.26,143.66z M810.28,108.64l-43.82-4.04l-1.39-6.19l6.4-27.33
		l40.16,34.39C810.87,106.37,810.41,107.48,810.28,108.64z M766.25,104.58l-2.57-0.24l1.28-5.49L766.25,104.58z M766.3,104.79
		l3.36,14.91l-10.1,2.28l4.08-17.44L766.3,104.79z M759.33,122.02l-22.27,5.02c-0.09-0.35-0.2-0.69-0.35-1.03
		c-1.35-3.02-4.9-4.38-7.93-3.02c-1.1,0.49-1.98,1.28-2.58,2.22l-25.38-15.8l3.77-10.31l58.84,5.42L759.33,122.02z M700.65,109.3
		l-17.51-10.9c0.16-0.4,0.24-0.83,0.29-1.26l20.95,1.93L700.65,109.3z M678.14,101.56l-6.57,23.75l-3.08-1.58l8.58-22.37
		C677.41,101.47,677.77,101.53,678.14,101.56z M671.51,125.5l-2.01,7.25l-4.61,0.33l3.51-9.16L671.51,125.5z M664.67,133.1
		l-11.19,0.8c-0.06-0.65-0.22-1.3-0.5-1.93c-1.35-3.02-4.9-4.38-7.93-3.02c-0.67,0.3-1.26,0.71-1.75,1.2l-19.27-18.94l0.86-9.54
		l43.34,22.16L664.67,133.1z M623.85,111.02l-17.59-17.29c0.32-0.36,0.59-0.76,0.81-1.18l17.63,9.02L623.85,111.02z M604.21,95.25
		c0.75-0.33,1.39-0.8,1.92-1.37l17.7,17.39l-2.51,27.93l-0.68-0.49c0.89-1.6,1.05-3.58,0.25-5.38c-1.23-2.75-4.27-4.11-7.08-3.32
		L603.56,95.5C603.78,95.43,603.99,95.35,604.21,95.25z M617.86,141.27c0.29-0.13,0.56-0.28,0.81-0.45l2.2,3.27l-15.35,170.52
		c-0.37,0.01-0.75,0.09-1.11,0.26c-0.37,0.17-0.69,0.4-0.95,0.68l10.78-173.86C615.43,141.91,616.68,141.8,617.86,141.27z
		 M605,320.52l-4.92,54.69c-0.12,0.06-0.23,0.14-0.32,0.25l3.48-56.08C603.67,319.97,604.3,320.36,605,320.52z M599.68,376.63
		c0.06,0.1,0.15,0.18,0.24,0.25l-0.05,0.6l-0.48,5.07c-0.02,0-0.05,0-0.07-0.01L599.68,376.63z M580.63,373.06l-29.64-23.75
		l15.91,12.55L580.63,373.06z M590.77,381.96l0.01,0.01l-3.12-1.88l-16.65-11.27l17.93,11.76L590.77,381.96z M584.39,378.12
		l-3.67-2.21l-19.59-12.7c-0.06-0.41-0.21-0.79-0.44-1.12L584.39,378.12z M591.81,385.55l-0.27-0.06l0.29,0.06L591.81,385.55z
		 M357.88,333.89l-10.16-2.24c0-0.01,0.01-0.01,0.01-0.02L357.88,333.89z M339.74,329.9l-71.05-15.63c0.01-0.05,0.01-0.1,0.02-0.15
		l71.03,15.75C339.74,329.88,339.74,329.89,339.74,329.9z M223.01,373.34c1.24,0.22,2.44-0.36,3.07-1.37l8.71,5.04
		c-0.19,0.36-0.35,0.75-0.43,1.17c-0.25,1.41,0.27,2.77,1.26,3.67l-24.34,26.18l-8.05,1.82l19.02-36.76
		C222.49,373.2,222.74,373.29,223.01,373.34z M211.04,408.28l-14.22,15.29c-0.15-0.15-0.31-0.28-0.48-0.4l6.77-13.09L211.04,408.28z
		 M594.55,388.34l-0.59,0.18l-15.86,3.23l16.35-3.71C594.47,388.15,594.51,388.24,594.55,388.34z M252.91,565.23l28.53,7.09
		l-28.86,16.84l-2.87-21.05C251.22,567.86,252.49,566.76,252.91,565.23z M296.45,578.6c0.81,0.87,1.7,1.38,2.59,1.63l3.48,52.04
		c-1.65,0.14-3.15,0.96-4.17,2.22l-36.69-28.5L296.45,578.6z M416.4,553.79l28.96-26.39l-28.91,26.44
		C416.42,553.83,416.41,553.81,416.4,553.79z M474.23,523.83c-0.01-0.01-0.03-0.02-0.05-0.04l28.26-30.87L474.23,523.83z
		 M365.31,714.31l21.75-8.59c0.61,1.24,1.77,2.19,3.23,2.45c1.84,0.33,3.62-0.51,4.58-1.98l14.7,11.07
		c-0.38,0.53-0.66,1.14-0.79,1.82c-0.02,0.12-0.02,0.24-0.03,0.35l-43.17-3.33C365.61,715.48,365.52,714.88,365.31,714.31z
		 M415.48,716.02l175.93-314.82L474.84,628.15c-0.24-0.14-0.5-0.25-0.79-0.3c-1.36-0.24-2.66,0.66-2.9,2.02
		c-0.22,1.22,0.49,2.39,1.62,2.79l-24.92,79.45c-0.11-0.03-0.22-0.07-0.34-0.09c-2.24-0.38-4.39,1.03-4.79,3.15
		c-0.07,0.37-0.06,0.73-0.03,1.08l-25.04,3C417.45,717.9,416.66,716.71,415.48,716.02z M448.03,712.16l24.92-79.45
		c0.07,0.02,0.13,0.05,0.2,0.06c1.36,0.24,2.66-0.66,2.9-2.02c0.18-1-0.26-1.97-1.05-2.5l119.18-232.04l0.39-0.69
		c0.14,0.27,0.38,0.49,0.7,0.55c0.02,0,0.04,0,0.07,0l-9.04,21.81c-0.22-0.28-0.53-0.48-0.91-0.55c-0.82-0.15-1.6,0.4-1.74,1.21
		c-0.15,0.82,0.39,1.59,1.21,1.74c0.15,0.03,0.3,0.02,0.44,0.01L536.4,538.28c-0.17-0.06-0.34-0.12-0.52-0.15
		c-1.63-0.29-3.19,0.79-3.48,2.42s0.79,3.19,2.42,3.48c1.63,0.29,3.19-0.79,3.48-2.42c0.25-1.38-0.49-2.7-1.71-3.25l48.96-118.11
		c0.36-0.1,0.67-0.33,0.86-0.65L462.68,737.11c-0.24-0.09-0.48-0.16-0.74-0.21c-1.04-0.19-2.05,0.02-2.91,0.48l-10.23-18.12
		c1.03-0.55,1.81-1.5,2.03-2.69C451.2,714.61,449.97,712.76,448.03,712.16z M463.53,737.52l46.3-77.37c0.43,0.25,0.9,0.44,1.42,0.53
		c0.09,0.02,0.18,0.01,0.27,0.02l-9.32,97.21c-1.78-0.13-3.43,0.8-4.26,2.32l-32.78-16.94c0.18-0.37,0.33-0.75,0.4-1.17
		C465.9,740.26,465.04,738.47,463.53,737.52z M607.28,403.57c-0.01,0.03-0.02,0.07-0.04,0.1l-2.22-4.65L607.28,403.57z
		 M609.33,407.68l1.49,3.01l0.1,0.67l-1.78-3.71C609.21,407.66,609.27,407.67,609.33,407.68z M611.11,411.27l1,2.01l0.31,1.2
		l-1.2-2.51L611.11,411.27z M698.71,741.19c-0.63-0.11-1.24-0.09-1.83,0.05L670.94,640.6c1.6-0.45,2.9-1.77,3.21-3.52
		c0.44-2.45-1.18-4.78-3.63-5.23c-0.63-0.11-1.24-0.09-1.83,0.05l-55.57-215.5l0.57,1.19l91.68,311.33l-5.7,12.56
		C699.37,741.36,699.05,741.25,698.71,741.19z M614.23,418.73l5.92,12.37l100.71,258.83c-1.7,0.39-3.09,1.76-3.42,3.59
		c-0.33,1.82,0.49,3.57,1.93,4.53l-13.87,30.6L614.23,418.73z M715.84,621.39l-15.32-30.8c0.26-0.44,0.46-0.93,0.55-1.46
		c0.44-2.45-1.18-4.78-3.63-5.23c-0.09-0.02-0.17-0.01-0.26-0.02l-50.96-102.45l-28.81-61.18l8.31,15.03l96.4,185.91
		c-0.58-0.33-1.22-0.58-1.92-0.7C718.63,620.2,717.09,620.57,715.84,621.39z M616.1,417.44l-3.8-8.07l9.97,19.23L616.1,417.44z
		 M612.24,406.77c0.24-0.27,0.43-0.58,0.57-0.93l3.92,5.25L612.24,406.77z M607.91,402.64l-6.59-11.92c0.05-0.03,0.09-0.06,0.13-0.1
		l8.33,11.16C609.07,401.84,608.41,402.15,607.91,402.64z M602.98,388.83l-0.06-0.03c0.05-0.11,0.09-0.22,0.13-0.33l4.18,1.16
		c-0.06,0.1-0.11,0.2-0.13,0.32c-0.02,0.1-0.01,0.21,0.01,0.31L602.98,388.83z M613.71,389.3l10.29,1.13
		c0.17,0.19,0.38,0.35,0.62,0.46l-7.47-1.06L613.71,389.3z M694.96,402.03l-64.49-10.11l65.54,9.28
		C695.61,401.4,695.25,401.68,694.96,402.03z M626.85,390.54c0.02-0.02,0.04-0.03,0.06-0.05l4.31,0.53L626.85,390.54z
		 M623.65,389.89l-4.94-0.61c0.17-0.15,0.31-0.34,0.35-0.58c0.1-0.54-0.26-1.06-0.81-1.16c-0.54-0.1-1.06,0.26-1.16,0.81
		c-0.05,0.28,0.02,0.55,0.17,0.76l-12.78-1.57l3.14-0.26l16.68,0.21c-0.4,0.29-0.69,0.73-0.79,1.25
		C623.44,389.14,623.49,389.54,623.65,389.89z M603.51,387.42l-0.23-0.03c0.01-0.06,0.01-0.11,0.01-0.17l2.25,0.03L603.51,387.42z
		 M603.3,387.02c0-0.02,0.01-0.04,0-0.06l14.53-0.74l-10.23,0.85L603.3,387.02z M841.17,338.25l14.55-29.29
		c0.47,0.22,0.97,0.39,1.51,0.49c2.35,0.42,4.62-0.59,5.93-2.41l5.34,15.17l-25.04,18.13C842.9,339.47,842.12,338.74,841.17,338.25z
		 M859.36,297.64c-2.4-0.43-4.71,0.63-6.01,2.51l-22.27-14.75c0.26-0.42,0.46-0.89,0.55-1.41c0.39-2.17-1.05-4.25-3.23-4.64
		c-0.07-0.01-0.15-0.01-0.22-0.02l4.96-50.49c0.79,0.07,1.6-0.02,2.38-0.29l24.36,69.21C859.72,297.72,859.54,297.68,859.36,297.64z
		 M828.16,225.32c0.15,0.32,0.32,0.63,0.51,0.91L683.4,328.24c-0.21-0.07-0.42-0.14-0.65-0.18c-2.25-0.38-4.41,1.04-4.82,3.17
		c-0.06,0.3-0.07,0.59-0.05,0.88l-75.12,52.75c-0.05-0.09-0.1-0.19-0.16-0.28l0.17-0.16l184.37-163.87c1.7,1.85,4.45,2.5,6.87,1.42
		c1.9-0.85,3.14-2.57,3.46-4.48l30.23,4.58C827.55,223.14,827.69,224.26,828.16,225.32z M790.33,210.62l-12.1-53.73l33.74-43.4
		c1.71,1.73,4.37,2.32,6.72,1.27c0.56-0.25,1.05-0.57,1.49-0.95l24.26,26.91l-49.53,70.8C793.58,210.63,791.94,210.28,790.33,210.62
		z M771.29,70.93l-6.33,27.03l-4.99-22.18l-0.2,0.04l5.09,22.58l-1.39,5.92l-58.82-5.42l23.68-64.75L771.29,70.93z M673.92,98.64
		c0.59,1.31,1.68,2.24,2.94,2.67l-8.56,22.33l-43.39-22.19l0.87-9.62l47.74,4.4C673.46,97.03,673.57,97.85,673.92,98.64z
		 M624.72,101.35l-17.56-8.98c0.33-0.69,0.53-1.43,0.58-2.2l17.84,1.64L624.72,101.35z M603.37,95.55l10.24,34.52
		c-0.22,0.07-0.44,0.15-0.65,0.24c-2.6,1.16-3.95,3.94-3.43,6.62l-8.08,2.44l0.43-43.6C602.37,95.77,602.87,95.69,603.37,95.55z
		 M609.56,137.13c0.09,0.37,0.21,0.75,0.37,1.11c0.8,1.78,2.35,2.97,4.11,3.38l-10.8,174.18c-0.63,0.84-0.8,1.98-0.34,3.01
		c0.04,0.09,0.09,0.16,0.14,0.25l-3.9,62.86L601,226.86c0.25-0.06,0.5-0.14,0.74-0.24c2.27-1.02,3.28-3.68,2.27-5.94
		c-0.63-1.42-1.91-2.34-3.33-2.59l0.77-78.5L609.56,137.13z M599.57,329.92l1.01-102.98c0.07-0.01,0.14-0.01,0.21-0.03
		L599.57,329.92z M598,382.58l-30.9-144.64c0.46-0.06,0.91-0.17,1.36-0.35c0.09-0.04,0.16-0.09,0.24-0.13l29.46,145.11
		C598.11,382.57,598.06,382.57,598,382.58z M566.91,237.96l30.9,144.65c0,0,0,0,0,0l-0.01-0.02l-35.51-146.49
		C563.39,237.45,565.14,238.14,566.91,237.96z M597.25,381.16l-2.12-5.47c0.3-0.13,0.54-0.38,0.6-0.73c0-0.02,0-0.03,0-0.05
		L597.25,381.16z M596.87,382.95c-0.01,0-0.01,0.01-0.02,0.01l-2.09-3.96L596.87,382.95z M596.4,383.21l-0.25-0.44l0.28,0.42
		C596.42,383.2,596.41,383.2,596.4,383.21z M551.49,326.95l-30.61-38.48l31.88,37.77C552.29,326.41,551.86,326.65,551.49,326.95z
		 M519.38,287.32c0.04-0.1,0.05-0.2,0.08-0.31l31.87,40.06c-0.42,0.38-0.76,0.83-0.99,1.36L518.1,289.1
		C518.65,288.63,519.1,288.04,519.38,287.32z M556.22,333.22l39.91,50.17c-0.15,0.11-0.29,0.23-0.42,0.36l-41.02-50.03
		C555.24,333.65,555.76,333.48,556.22,333.22z M594.33,382.59l-0.05-0.05L594.33,382.59L594.33,382.59z M595.41,384.08
		c-0.01,0.01-0.01,0.01-0.02,0.02l-1.72-1.35l-9.01-8.51l-0.11-0.14l9.63,8.62L595.41,384.08z M591.4,380.95l-3.43-2.71l-1.78-2.16
		L591.4,380.95z M593.15,382.59l0.87,0.81l-2.48-1.71l-2.21-1.81l-0.76-0.92L593.15,382.59z M588.53,379.24l-11.2-9.14l10.49,8.28
		L588.53,379.24z M557.19,353.95l-26.67-21.05c0.11-0.15,0.2-0.3,0.27-0.47L557.19,353.95z M530.39,333.06l57.94,46.43l-0.52-0.36
		l-58.6-45.31C529.67,333.69,530.08,333.42,530.39,333.06z M588.12,379.62l-0.95-0.63l-0.93-0.7l1.45,1L588.12,379.62z
		 M559.58,361.09l-7.94-5.37l26.73,17.69L559.58,361.09z M559.28,361.14c-0.06-0.01-0.11-0.04-0.17-0.05
		c-0.39-0.07-0.78-0.04-1.14,0.07L383.01,247.71c0.61-0.25,1.16-0.61,1.63-1.05L559.28,361.14z M561.16,363.46l4.44,2.88l-4.43-2.84
		C561.16,363.48,561.16,363.47,561.16,363.46z M586.8,380.25l-4.21-2.28l-21.82-13.07c0.12-0.19,0.21-0.4,0.28-0.62l12.23,7.38
		L586.8,380.25z M592.73,384.02l0.07,0.03l0.58,0.37l-0.63-0.38L592.73,384.02z M594.47,385.91l-0.26-0.09l-0.3-0.36l0.61,0.26
		C594.51,385.78,594.49,385.84,594.47,385.91z M581.46,383.07l-2.34-0.52c0.07-0.02,0.14-0.05,0.2-0.09L581.46,383.07z
		 M245.79,289.97l-33.27,9.32c-0.09-0.35-0.21-0.71-0.37-1.08c-0.08-0.17-0.19-0.34-0.33-0.47c-0.4-0.4-0.82-0.7-1.25-0.95
		l15.37-25.88c0.35,0.26,0.75,0.48,1.17,0.63c1.84,0.63,3.72,0.03,4.87-1.28l14.68,16.82C245.94,287.74,245.55,288.78,245.79,289.97
		z M212.62,328.64c0.44,0.08,0.88,0.1,1.31,0.09l1.12,19.18c-1.78,0.14-3.33,1.34-3.9,3.08l-74.4-22.48
		c0.1-0.35,0.16-0.73,0.17-1.12c0-0.08-0.01-0.16-0.01-0.24l70.8-3.97C207.9,325.84,209.86,328.15,212.62,328.64z M136.69,328.69
		l74.41,22.49c-0.04,0.13-0.09,0.26-0.11,0.4c-0.18,1.02,0.01,2.02,0.45,2.87l-41.21,39.22l0.07,0.07c-0.77-0.14-1.52,0-2.17,0.32
		l-33.5-62.85C135.58,330.68,136.33,329.79,136.69,328.69z M173.12,397.81c0.13-0.74,0.02-1.46-0.27-2.09l48.07-23.92
		c0.27,0.49,0.67,0.91,1.17,1.19l-19.1,36.91l-19.08,4.33l-12.26-14.15C172.39,399.57,172.94,398.78,173.12,397.81z M202.86,410.14
		l-6.69,12.92c-0.36-0.22-0.77-0.39-1.21-0.47c-1.14-0.21-2.24,0.17-3.03,0.92l-7.89-9.1L202.86,410.14z M191.79,423.64
		c-0.45,0.48-0.77,1.08-0.9,1.77c-0.34,1.9,0.92,3.72,2.82,4.06c1.9,0.34,3.72-0.92,4.07-2.82c0.13-0.71,0.03-1.4-0.24-2.02
		L508.8,395.6c0.29,0.45,0.75,0.79,1.33,0.89c0.95,0.17,1.87-0.36,2.21-1.22l67.14-6.26c-0.05,0.51,0.29,0.98,0.8,1.07
		c0.54,0.1,1.06-0.26,1.16-0.81c0.03-0.16,0.01-0.3-0.03-0.45l12.97-1.21c0.01,0.08,0.01,0.16,0.03,0.23l-18.24,4.14
		c-0.12-0.58-0.58-1.05-1.2-1.16c-0.82-0.15-1.6,0.4-1.74,1.21c-0.04,0.21-0.03,0.42,0.02,0.61l-4.12,0.93l-4.2,0.86
		c-0.23-0.66-0.79-1.18-1.53-1.31c-1.09-0.2-2.13,0.53-2.32,1.61c-0.03,0.17-0.03,0.33-0.02,0.49l-369.92,75.39
		c-0.31-1.16-1.3-2.11-2.62-2.34c-0.43-0.07-0.84-0.06-1.24,0.02l-12.72-51.74l9.29-2.11L191.79,423.64z M187.32,474.47
		c1.8,0.31,3.53-0.83,3.85-2.54c0.07-0.38,0.06-0.76-0.01-1.12l369.08-75.22l-412.62,93.54c-0.05-0.19-0.11-0.38-0.18-0.56
		l37.49-15.83C185.38,473.61,186.24,474.28,187.32,474.47z M147.77,490.31c0.01-0.33-0.03-0.66-0.1-0.98l413.44-93.73
		c0.19,0.73,0.78,1.32,1.57,1.46c1.09,0.2,2.13-0.53,2.32-1.61c0.04-0.25,0.04-0.49-0.01-0.73l4.22-0.96l4.12-0.84
		c0.2,0.43,0.59,0.76,1.09,0.85c0.82,0.15,1.6-0.4,1.74-1.21c0.01-0.07,0.02-0.15,0.02-0.22l15.59-3.18L225.54,498.1
		c-0.47-1.57-1.77-2.83-3.49-3.14c-2.45-0.44-4.79,1.19-5.23,3.63c-0.44,2.45,1.18,4.79,3.63,5.23c2.45,0.44,4.79-1.19,5.23-3.63
		c0.12-0.65,0.08-1.29-0.07-1.89l368.41-109.58l0.37-0.08l-37.88,15.28c-0.27-0.57-0.79-1-1.45-1.12c-1.09-0.2-2.13,0.53-2.32,1.61
		c-0.11,0.6,0.07,1.17,0.42,1.61L274.92,521.18c-0.58-1.32-1.79-2.34-3.32-2.61c-2.45-0.44-4.79,1.19-5.23,3.63
		c-0.06,0.31-0.08,0.62-0.07,0.92l-88.11,4.29c-0.13-1.78-1.43-3.31-3.26-3.64c-1.17-0.21-2.3,0.12-3.17,0.8l-25.55-30.94
		C147.13,492.84,147.74,491.67,147.77,490.31z M139.49,563.7l32.03-33.07c0.54,0.5,1.22,0.86,1.99,1c0.84,0.15,1.66,0.02,2.38-0.31
		l21.68,44.33c-1.14,0.59-2.01,1.66-2.32,3l-54.53-11C140.99,566.15,140.48,564.7,139.49,563.7z M200.42,575.21
		c-0.95-0.17-1.87-0.03-2.68,0.35l-21.68-44.33c0.72-0.38,1.31-0.96,1.69-1.7l67.7,32.99c-0.14,0.3-0.25,0.61-0.31,0.95
		c-0.25,1.37,0.24,2.71,1.18,3.6l-18.81,20.77c-0.46-0.39-1.01-0.68-1.64-0.79c-1.61-0.29-3.14,0.57-3.79,1.99l-18.27-7.74
		c0.11-0.27,0.19-0.56,0.25-0.86C204.49,577.99,202.87,575.65,200.42,575.21z M222.95,593.12c0.46,0.4,1.03,0.7,1.67,0.82
		c1.9,0.34,3.72-0.92,4.07-2.82c0.22-1.2-0.21-2.36-1.02-3.15l18.81-20.77c0.52,0.45,1.16,0.78,1.89,0.92
		c0.39,0.07,0.77,0.06,1.15,0.02l2.88,21.14l-52.92,30.88c-0.2-0.32-0.42-0.63-0.69-0.89L222.95,593.12z M199.57,620.32l52.86-30.84
		l0.85,6.22c-2.05,0.33-3.73,2.06-3.79,4.35c-0.04,1.41,0.63,2.75,1.71,3.61l-15.47,20.44c-0.69-0.49-1.5-0.85-2.39-1.01
		c-3.23-0.58-6.32,1.54-6.95,4.76l-26.29-4.68C200.24,622.15,200.04,621.16,199.57,620.32z M237.03,625.38l24.47-19.26l36.73,28.53
		c-0.58,0.77-0.98,1.69-1.13,2.72l-58.89-7.68C238.4,628.09,237.94,626.57,237.03,625.38z M315.5,680.96l61.2-63.37
		c0.57,0.6,1.31,1.04,2.19,1.19c2.17,0.39,4.25-1.05,4.65-3.23c0.23-1.27-0.18-2.49-0.98-3.38l32.17-30.63
		c0.49,0.48,1.12,0.83,1.84,0.96c1.9,0.34,3.72-0.92,4.07-2.82c0.34-1.9-0.92-3.72-2.82-4.06c-0.18-0.03-0.35-0.04-0.52-0.04
		l35.39-36.64c0.24,0.91,0.98,1.66,1.97,1.83c1.36,0.24,2.66-0.66,2.9-2.02c0.12-0.69-0.05-1.36-0.43-1.89l134.61-141.78
		L474.03,523.67c-0.28-0.19-0.6-0.33-0.96-0.39c-1.36-0.24-2.66,0.66-2.9,2.02c-0.13,0.75,0.09,1.47,0.53,2.01l-96.04,104.94
		c-0.54-0.5-1.22-0.87-2.01-1.01c-2.17-0.39-4.25,1.05-4.65,3.23c-0.25,1.41,0.27,2.77,1.26,3.67l-26.47,28.92
		c-0.8-0.71-1.78-1.21-2.91-1.42c-3.26-0.59-6.38,1.58-6.97,4.84c-0.46,2.54,0.76,4.99,2.87,6.23l-17.04,30.12
		c-0.41-0.22-0.84-0.39-1.32-0.48c-0.48-0.09-0.96-0.07-1.42-0.01l-2.89-17.81c1.79-0.33,3.27-1.72,3.61-3.61
		C317,683.42,316.49,681.97,315.5,680.96z M416.84,722.51c0.38-0.53,0.67-1.14,0.79-1.83c0.08-0.42,0.07-0.83,0.03-1.23l25.04-3
		c0.26,1.61,1.55,2.96,3.33,3.26c0.92,0.16,1.81,0,2.58-0.37l10.23,18.13c-1.08,0.64-1.9,1.72-2.14,3.05
		c-0.39,2.18,0.86,4.27,2.87,5.01l-2.55,7.41L416.84,722.51z M503.1,758.07l17.03-65.67c0.18,1.94,1.6,3.6,3.59,3.99l-16.86,69.19
		l-1.65-0.2c0.54-0.6,0.94-1.35,1.1-2.21C506.72,760.87,505.3,758.69,503.1,758.07z M525.74,687.66l23.66-96.72l-23.57,96.75
		C525.81,687.68,525.78,687.67,525.74,687.66z M662.13,724.01l31.9,19.37c-0.25,0.44-0.45,0.92-0.55,1.44
		c-0.27,1.47,0.23,2.9,1.19,3.9l-3.96,3.97l-29.07-28.06C661.82,724.44,661.99,724.23,662.13,724.01z M701.96,747.54
		c0.17-0.35,0.31-0.72,0.38-1.13c0.37-2.04-0.71-3.98-2.49-4.84l5.6-12.36l6.94,23.57L701.96,747.54z M705.59,728.94l13.96-30.79
		c0.46,0.28,0.97,0.49,1.53,0.59c1.08,0.19,2.13-0.03,3.01-0.53l27.71,71.21c-0.95,0.4-1.74,1.12-2.23,2.05l-36.91-18.55
		L705.59,728.94z M755.09,769.36l9.44-27.08c0.24,0.07,0.49,0.13,0.74,0.18c3.34,0.57,6.53-1.53,7.13-4.7s-1.61-6.19-4.95-6.76
		c-1.23-0.21-2.43-0.06-3.5,0.38l-46.78-99.34c0.3,0.1,0.6,0.19,0.92,0.25c3.26,0.59,6.38-1.58,6.97-4.84
		c0.03-0.17,0.05-0.34,0.07-0.5l69.69,134.4l-37.02,10.87C757.37,770.92,756.4,769.85,755.09,769.36z M725.14,626.55
		c0.06-2.1-0.98-4.05-2.68-5.17l-93.11-179.56L763.3,684.08c-1.1,0.64-1.93,1.72-2.17,3.07c-0.44,2.45,1.18,4.79,3.63,5.23
		c2.45,0.44,4.79-1.19,5.23-3.63c0.44-2.45-1.18-4.78-3.63-5.23c-1.03-0.18-2.02,0.01-2.88,0.46L625.89,435.15l-13.78-26.57
		l198.67,342.58c-2.27,0.52-4.13,2.35-4.57,4.79c-0.13,0.7-0.12,1.39-0.01,2.05l-11.2,3.29L725.14,626.55z M814.87,751.68l2.06-4.14
		c0.66,0.44,1.43,0.76,2.26,0.91c2.4,0.43,4.73-0.64,6.02-2.53L856,777.77c-0.52,0.48-0.9,1.1-1.03,1.83
		c-0.07,0.36-0.06,0.71-0.01,1.05l-2.35,0.37l-35.3-21.02c0.33-0.58,0.58-1.22,0.7-1.92C818.49,755.42,817.15,752.86,814.87,751.68z
		 M856.16,777.64l-30.84-31.89c0.4-0.63,0.69-1.35,0.83-2.14c0.29-1.58-0.08-3.13-0.9-4.37l30.24-9.08
		c0.51,1.41,1.77,2.53,3.43,2.82c0.2,0.03,0.4,0.04,0.6,0.04l-1.05,43.78C857.6,776.81,856.79,777.12,856.16,777.64z M855.3,728.04
		c-0.13,0.67-0.07,1.33,0.12,1.94l-30.29,9.09c-0.88-1.23-2.21-2.13-3.82-2.42c-0.34-0.06-0.68-0.09-1.01-0.09l-0.71-82.28
		c2.13,0.31,4.14-0.93,4.86-2.9l24.94,16.7l9.51,56.53C857.13,724.93,855.65,726.24,855.3,728.04z M816.54,625.68
		c-0.65,0.56-1.12,1.3-1.29,2.18c-0.4,2.11,1.08,4.14,3.31,4.52c0.22,0.04,0.44,0.05,0.66,0.05l0.11,13.02
		c-0.72,0.15-1.38,0.49-1.94,0.96l-48.72-32.63c0.31-0.48,0.53-1.02,0.64-1.62c0.44-2.45-1.18-4.79-3.63-5.23
		c-0.85-0.15-1.68-0.04-2.42,0.25l-144.9-194.24l35.02,33.73L816.54,625.68z M872.59,561.57c-0.06-0.01-0.12-0.01-0.18-0.01
		l5.99-51.99c2.08,0.17,4-1.18,4.38-3.17c0.05-0.25,0.06-0.5,0.06-0.74l18.88,0.86l-28.11,55.37
		C873.29,561.75,872.96,561.63,872.59,561.57z M876.79,502.31c-1.05,0.54-1.86,1.51-2.09,2.71c-0.4,2.11,1.08,4.14,3.31,4.52
		c0.06,0.01,0.12,0.01,0.18,0.01l-5.99,51.99c-0.28-0.02-0.55-0.02-0.81,0.01l-5.51-37.12c2.43-0.4,4.46-2.29,4.93-4.85
		c0.59-3.26-1.58-6.38-4.84-6.97c-0.44-0.08-0.88-0.1-1.31-0.09l-1.78-31.29c0.73-0.17,1.42-0.47,2.04-0.89L876.79,502.31z
		 M862.93,469.54c-0.1-0.02-0.19-0.05-0.29-0.07c-3.09-0.56-6.05,1.36-6.85,4.34l-84.53-28.33c-0.03-2.21-1.7-4.17-4.09-4.58
		c-1.82-0.31-3.58,0.38-4.69,1.64l-40.54-13.59c0.01-2.14-1.51-4.05-3.69-4.44c-1.73-0.31-3.39,0.42-4.38,1.74l-57.34-19.22
		c-0.36-0.25-0.79-0.44-1.26-0.52c-0.12-0.02-0.25-0.02-0.37-0.03l-29.3-9.82l-16.82-5.83c0.15-0.14,0.26-0.31,0.3-0.53
		c0.01-0.06,0-0.11,0-0.17l194.49,53.8c0.39,0.2,0.81,0.37,1.27,0.45c0.17,0.03,0.35,0.03,0.52,0.04l36.11,9.99
		c0.4,1.69,1.76,3.07,3.58,3.4c2.45,0.44,4.79-1.19,5.23-3.63c0.44-2.45-1.18-4.78-3.63-5.23c-2.45-0.44-4.79,1.19-5.23,3.63
		c-0.1,0.55-0.08,1.09,0.02,1.61l-35.36-9.78c1.95-0.19,3.63-1.63,3.99-3.66c0.44-2.45-1.18-4.78-3.63-5.23
		c-2.3-0.41-4.49,1.01-5.11,3.22l-192.55-49.34c-0.14-0.13-0.3-0.23-0.49-0.27c-0.15-0.03-0.3-0.01-0.44,0.03l-3.64-0.93l1.5,0.17
		l11.39,1.61l77.74,12.18c-0.22,0.32-0.38,0.69-0.46,1.09c-0.3,1.59,0.81,3.12,2.49,3.4s3.29-0.77,3.59-2.37
		c0.08-0.43,0.05-0.86-0.06-1.25l18.96,2.97c0.61,0.47,1.33,0.83,2.14,0.97c0.89,0.16,1.77,0.05,2.56-0.23l97.18,15.23
		c0.64,0.7,1.5,1.22,2.5,1.4c1.08,0.19,2.13-0.03,3.01-0.53l42.18,6.61c-0.04,0.16-0.08,0.31-0.11,0.48
		c-0.54,2.98,1.23,5.84,4.03,6.75L862.93,469.54z M870.52,426.78c-0.7,0.69-1.23,1.55-1.53,2.53l-41.96-6.58
		c0.98-0.65,1.71-1.69,1.94-2.94c0.44-2.45-1.18-4.79-3.63-5.23c-2.45-0.44-4.79,1.19-5.23,3.63c-0.02,0.13-0.02,0.26-0.03,0.38
		l-93.88-13.3c0.53-0.64,0.93-1.41,1.09-2.29c0.07-0.4,0.08-0.79,0.06-1.18l41.56,4.58c0.65,0.8,1.57,1.39,2.66,1.59
		c1.31,0.24,2.59-0.14,3.56-0.9l85.57,9.42L870.52,426.78z M860.5,416.27l-85.15-9.38c0.73-0.65,1.27-1.52,1.45-2.55
		c0.44-2.45-1.18-4.79-3.63-5.23c-2.45-0.44-4.79,1.19-5.23,3.63c-0.23,1.25,0.09,2.46,0.78,3.42l-41.4-4.56
		c-0.22-2.16-1.82-4.02-4.06-4.42c-2.48-0.45-4.84,1.03-5.61,3.35l-70.37-7.75l-20.23-2.48c0.19-0.25,0.33-0.53,0.39-0.86
		c0.14-0.76-0.18-1.49-0.75-1.93l202.97,2.61c0.01,2.84,2.03,5.36,4.93,5.88c1.92,0.35,3.79-0.27,5.13-1.5L860.5,416.27z
		 M841.66,390.06c-0.02-2.83-2.04-5.34-4.93-5.86c-3.26-0.59-6.38,1.58-6.97,4.84c-0.05,0.3-0.08,0.59-0.09,0.89l-203.3-2.61
		c-0.17-0.08-0.34-0.15-0.54-0.19c-0.43-0.08-0.85-0.01-1.21,0.17l-14.93-0.19l14.27-1.19l89.98-4.56c0.47,0.33,1.01,0.58,1.61,0.69
		c1.25,0.22,2.45-0.17,3.33-0.94l23.38-1.19c-0.69,0.64-1.2,1.49-1.38,2.49c-0.44,2.45,1.18,4.78,3.63,5.23
		c2.45,0.44,4.79-1.19,5.23-3.63c0.31-1.73-0.42-3.39-1.73-4.38l119.08-6.04l12.47,12.98c-0.55,0.56-0.95,1.27-1.1,2.1
		c-0.11,0.6-0.06,1.2,0.09,1.75L841.66,390.06z M882.3,385.38c-0.98,0.02-1.89,0.42-2.59,1.06l-12.36-12.87l13.2-0.67L882.3,385.38z
		 M880.52,372.7l-13.36,0.68l-24.53-25.54c0.84-0.84,1.45-1.93,1.68-3.19c0.04-0.22,0.06-0.44,0.08-0.66l28.43,1.44
		c-0.05,1.94,1.3,3.68,3.27,4.04c0.4,0.07,0.78,0.06,1.16,0.02L880.52,372.7z M875.4,341.8c-1.27,0.48-2.26,1.58-2.52,3.02
		c-0.02,0.14-0.02,0.27-0.03,0.41l-28.44-1.44c0.04-1.18-0.26-2.3-0.84-3.27l25-18.11L875.4,341.8z M901.85,296.55l-33.18,25.54
		l-5.37-15.24c0.43-0.66,0.75-1.41,0.9-2.24c0.54-2.99-1.25-5.86-4.07-6.77l-24.41-69.36c0.12-0.05,0.25-0.09,0.37-0.14
		c0.61-0.27,1.15-0.64,1.62-1.08L901.85,296.55z M901.72,205.39l-62.29,15.94c-0.08-0.31-0.18-0.61-0.32-0.92
		c-1.35-3.02-4.9-4.38-7.93-3.02c-1.9,0.85-3.14,2.57-3.46,4.48l-30.23-4.58c0.14-1.07,0.01-2.19-0.47-3.25
		c-0.45-1-1.13-1.81-1.96-2.4l49.51-70.76L901.72,205.39z M848.82,134.46l-4.26,6.09l-24.23-26.88c0.22-0.2,0.42-0.42,0.6-0.65
		L848.82,134.46z M812.94,104.28c-0.15,0.1-0.29,0.2-0.43,0.31l-74.2-90.37c0.63-0.56,1-1.35,1.02-2.18l11.06-0.14
		c0.02,0.5,0.13,1,0.34,1.48c0.9,2.02,3.27,2.92,5.28,2.02c0.13-0.06,0.24-0.14,0.36-0.21L812.94,104.28z M733.34,12.02
		c0,0.4,0.09,0.8,0.26,1.19c0.33,0.74,0.92,1.27,1.62,1.55l-6.97,19.05l-20.8-17.81c1.13-1.22,1.71-2.87,1.58-4.54L733.34,12.02z
		 M676.17,0.49l21.46,8.91c-0.71,1.52-0.78,3.33-0.04,4.98c0.75,1.66,2.16,2.82,3.78,3.3l-20.62,74.49c-1.3-0.66-2.87-0.77-4.3-0.13
		c-1.67,0.75-2.71,2.31-2.9,4.01l-47.74-4.4l3.14-34.93L676.17,0.49z M628.71,56.99l-3.12,34.63l-17.85-1.65
		c0.03-0.88-0.13-1.79-0.52-2.65c-0.38-0.85-0.94-1.56-1.6-2.12L628.71,56.99z M596.68,86.59c-1.03,1.64-1.25,3.74-0.39,5.64
		c0.99,2.2,3.13,3.51,5.4,3.54l-0.43,43.66l-14.46,4.36c-0.07-0.21-0.14-0.42-0.24-0.62c-1.35-3.02-4.9-4.38-7.93-3.02
		s-4.38,4.9-3.02,7.93c1.05,2.34,3.41,3.67,5.82,3.53l17.31,230.79L584,257.59c0.41-0.06,0.82-0.15,1.21-0.33
		c2.27-1.02,3.28-3.68,2.27-5.94c-1.02-2.27-3.68-3.28-5.95-2.27c-2.27,1.02-3.28,3.68-2.27,5.94c0.81,1.81,2.66,2.8,4.53,2.62
		l14.75,124.89c-0.06,0-0.12,0.02-0.18,0.02l-29.48-145.19c2.28-1.23,3.26-3.91,2.17-6.22c-0.75-1.6-2.3-2.61-4.01-2.83
		l-23.61-116.3c1.27,0.32,2.65,0.24,3.93-0.33c3.02-1.35,4.38-4.9,3.02-7.93c-0.45-1-1.14-1.82-1.98-2.41l21.89-31.54L596.68,86.59z
		 M570.14,69.67l-21.88,31.54c-1.66-1.11-3.83-1.37-5.79-0.5c-0.43,0.19-0.82,0.43-1.18,0.7l-9.33-45.97l7.15-5.55L570.14,69.67z
		 M531.92,55.23l-1.54-7.59c1.11-0.15,2.14-0.64,2.93-1.45l5.63,3.59L531.92,55.23z M492.28,23.35c0.3,0.32,0.67,0.59,1.1,0.75
		c1.32,0.51,2.78,0.01,3.54-1.11l28.12,17.93c-0.96,2.53,0.27,5.35,2.76,6.38l-4.97,11.87c-0.01-0.01-0.03-0.01-0.04-0.02
		c-2.58-0.99-5.47,0.29-6.46,2.87c-0.99,2.58,0.29,5.47,2.87,6.46c0.77,0.29,1.55,0.37,2.32,0.29l4.63,19.12
		c-1.84,0.45-3.43,1.76-4.17,3.67c-1.19,3.09,0.35,6.56,3.44,7.75c1.18,0.45,2.41,0.51,3.55,0.24l32.26,133.09
		c-0.09,0.82,0.02,1.67,0.4,2.47c0.09,0.19,0.21,0.36,0.33,0.54l33.58,138.56c-0.15-0.2-0.37-0.36-0.63-0.4
		c-0.18-0.03-0.35,0-0.51,0.06l-60.89-157.38c0.31-0.07,0.62-0.16,0.91-0.29c2.27-1.02,3.28-3.68,2.27-5.94s-3.68-3.28-5.95-2.27
		c-0.15,0.07-0.29,0.16-0.43,0.25l-14.8-38.25c0.5-0.04,1-0.15,1.48-0.36c2.27-1.02,3.28-3.68,2.27-5.94s-3.68-3.28-5.95-2.27
		c-0.33,0.15-0.63,0.34-0.91,0.56l-27.46-70.98c2.26-0.66,4.02-2.63,4.28-5.12c0.35-3.29-2.04-6.25-5.33-6.6
		c-0.59-0.06-1.17-0.03-1.73,0.07l-4.14-40.3c1.05-0.14,1.99-0.82,2.39-1.88c0.4-1.04,0.17-2.16-0.49-2.97L492.28,23.35z
		 M421.09,0.02l53.99,34.48c-0.09,0.15-0.18,0.31-0.24,0.48c-0.59,1.55,0.18,3.28,1.72,3.88c0.42,0.16,0.86,0.22,1.28,0.19
		l4.15,40.32c-2.36,0.52-4.24,2.44-4.62,4.93l-38.93-7.45c0.66-2.86-0.87-5.85-3.69-6.93c-1.38-0.53-2.84-0.52-4.14-0.06
		L415.6,24.18c1.61-0.56,2.97-1.79,3.63-3.51c1.18-3.07-0.33-6.52-3.39-7.73L421.09,0.02z M381.99,50.67
		c0.06-0.11,0.12-0.21,0.17-0.33c0.44-1.14,0.13-2.39-0.69-3.2l27.74-24.57c0.61,0.66,1.37,1.21,2.26,1.55
		c1.31,0.5,2.69,0.51,3.93,0.13l15.03,45.68c-1.42,0.55-2.63,1.64-3.29,3.12L381.99,50.67z M427.71,78.98
		c0.58,0.81,1.36,1.49,2.31,1.94L416.32,111c-0.31-0.13-0.63-0.24-0.97-0.3c-1.95-0.35-3.81,0.62-4.72,2.26l-15.84-8.31
		c0.18-0.37,0.34-0.76,0.42-1.19c0.2-1.13-0.05-2.23-0.61-3.14L427.71,78.98z M390.76,107.14c1.65,0.01,3.15-0.9,3.93-2.32
		l15.84,8.31c-0.18,0.37-0.34,0.76-0.42,1.19c-0.25,1.41,0.19,2.77,1.07,3.77l-18.1,16.76c-0.63-0.65-1.46-1.13-2.43-1.3
		c-0.2-0.04-0.39-0.04-0.58-0.05L390.76,107.14z M392.79,141.37c0.76-0.65,1.31-1.54,1.5-2.59c0.25-1.41-0.19-2.77-1.07-3.77
		l18.1-16.76c0.63,0.65,1.46,1.13,2.43,1.3c2.43,0.44,4.76-1.17,5.22-3.59l34.5,5.74c-0.3,1-0.28,2.11,0.18,3.13
		c1.02,2.27,3.68,3.28,5.95,2.27c0.07-0.03,0.12-0.08,0.19-0.11l53.42,99.74c-0.13,0.19-0.24,0.39-0.33,0.61
		c-0.75,1.86,0.22,3.95,2.18,4.66c0.36,0.13,0.72,0.19,1.08,0.21l8.86,16.54c-0.42,0.3-0.76,0.7-0.96,1.19
		c-0.57,1.39,0.17,2.96,1.64,3.5c0.62,0.23,1.27,0.22,1.86,0.05l50.58,94.43l18.56,35.14c-0.02,0.01-0.04,0.02-0.06,0.03l-1.81-2.67
		l-13.69-23.78c-0.03-0.83-0.47-1.58-1.16-2.02l-23.12-40.17c0.06-0.51-0.01-1.05-0.23-1.55c-0.32-0.7-0.87-1.22-1.53-1.51
		l-54.36-94.46c0.55-0.47,1-1.06,1.28-1.78c0.89-2.32-0.26-4.92-2.58-5.82c-2.32-0.89-4.92,0.26-5.81,2.58
		c-0.89,2.32,0.26,4.92,2.58,5.82c1.53,0.59,3.17,0.27,4.38-0.67l54.22,94.21c-0.68-0.22-1.44-0.21-2.14,0.11
		c-1.51,0.68-2.19,2.45-1.51,3.96c0.68,1.51,2.45,2.19,3.96,1.51c0.9-0.4,1.5-1.2,1.69-2.1l22.84,39.68
		c-0.18-0.08-0.36-0.14-0.56-0.18c-0.64-0.12-1.27,0.03-1.78,0.35L476.09,205.6c0.9-0.49,1.65-1.28,2.04-2.31
		c0.89-2.32-0.26-4.92-2.58-5.82c-2.32-0.89-4.92,0.26-5.81,2.58c-0.89,2.32,0.26,4.92,2.58,5.82c1.22,0.47,2.51,0.36,3.59-0.17
		l101.2,149.05c-0.01,0.01-0.02,0.02-0.03,0.03L557.7,331.8c0.22-0.37,0.4-0.78,0.49-1.23c0.4-2.11-1.08-4.14-3.31-4.52
		c-0.67-0.11-1.32-0.05-1.92,0.12l-33.39-39.57c0.44-2.12-0.69-4.31-2.78-5.11c-0.56-0.21-1.13-0.3-1.69-0.3l-11-13.83
		c1.08-0.46,1.98-1.33,2.43-2.51c0.89-2.32-0.26-4.92-2.58-5.82c-1.94-0.75-4.07-0.05-5.24,1.56l-9.02-11.34
		c0.16-0.25,0.29-0.51,0.4-0.79c0.89-2.32-0.26-4.92-2.58-5.82c-1.04-0.4-2.12-0.37-3.1-0.03l-33.04-41.53
		c0.9-0.49,1.64-1.28,2.03-2.3c0.89-2.32-0.26-4.92-2.58-5.82c-2.32-0.89-4.92,0.26-5.81,2.58c-0.89,2.32,0.26,4.92,2.58,5.82
		c1.22,0.47,2.52,0.36,3.6-0.18l33.02,41.5c-1.11,0.45-2.05,1.33-2.52,2.54c-0.89,2.32,0.26,4.92,2.58,5.82
		c1.55,0.6,3.22,0.26,4.43-0.71l9.46,11.21c-0.01,0.02-0.03,0.04-0.04,0.07c-0.89,2.32,0.26,4.92,2.58,5.82
		c0.86,0.33,1.75,0.38,2.58,0.19l11.48,13.6c-1.65,0.15-3.16,1.2-3.79,2.85c-0.07,0.18-0.1,0.36-0.15,0.54L392.79,141.37z
		 M515.41,290.19c0.93-0.05,1.81-0.39,2.53-0.96l32.33,39.43c-0.06,0.18-0.13,0.35-0.16,0.54c-0.4,2.11,1.08,4.14,3.31,4.52
		c0.35,0.06,0.69,0.06,1.03,0.04l39.19,47.79l-12.56-13.65l-19.24-21.35L515.41,290.19z M567.64,353.27l-2.41-2.62l-0.52-0.63
		L567.64,353.27z M465.89,240.37l58.16,64.54c-0.33-0.08-0.67-0.13-1-0.12l-58.07-63.14C465.35,241.28,465.66,240.85,465.89,240.37z
		 M526.9,308.97c0.05-0.3,0.05-0.59,0.02-0.88l34.77,38.59l1.05,1.27L526.9,308.97z M567.57,353.48l13.28,14.44l12.09,13.41
		l-9.22-8.26L567.57,353.48z M438.53,236.44l73.97,69.88l-74.05-69.73C438.48,236.55,438.51,236.5,438.53,236.44z M561.58,352.82
		L438.01,237.37c0.13-0.18,0.25-0.37,0.35-0.58L561.58,352.82z M404.46,206.02c0.2-0.19,0.38-0.41,0.55-0.64l27.08,25.5
		c-0.2,0.12-0.39,0.26-0.58,0.41L404.46,206.02z M434.21,239.2c1.42,0.06,2.78-0.57,3.67-1.68l128.01,119.6l-31.8-28.48
		c-0.24-0.39-0.6-0.71-1.02-0.92L434.21,239.2z M534.44,330.41c0.08-0.45,0.03-0.89-0.12-1.29l38.47,34.45l12.27,11.46l2.17,2.63
		l-19.35-15.28l-36.98-30.18c0.2,0.1,0.41,0.18,0.65,0.22C532.89,332.67,534.19,331.77,534.44,330.41z M268.61,123.03
		c0.73-0.63,1.32-1.44,1.69-2.4c0.08-0.22,0.15-0.43,0.21-0.65l104.14,84.98c-0.16,0.27-0.31,0.55-0.42,0.85
		c-0.2,0.52-0.31,1.04-0.35,1.57L268.61,123.03z M382.99,211.92l144.08,117.48c-0.16,0.11-0.3,0.25-0.44,0.4L411.4,237.45
		c-0.49-0.71-1.18-1.29-2.04-1.63l-28.41-22.77C381.7,212.82,382.4,212.44,382.99,211.92z M526.51,329.95
		c-0.22,0.3-0.39,0.65-0.46,1.05c-0.02,0.12-0.02,0.24-0.03,0.36l-114.72-88.7c0.23-0.32,0.44-0.66,0.59-1.04
		c0.48-1.25,0.35-2.58-0.22-3.69L526.51,329.95z M411.17,242.81l114.85,88.8c0.08,1.12,0.89,2.08,2.04,2.29
		c0.31,0.06,0.61,0.05,0.91-0.01l55.91,43.23l-2.31-1.59L408.42,244.41C409.49,244.23,410.47,243.67,411.17,242.81z M357.91,206.63
		l45.37,34.16c0.27,1.49,1.28,2.81,2.8,3.39c0.68,0.26,1.38,0.33,2.06,0.26l156.34,117.71L358.93,209.6
		C358.88,208.52,358.52,207.49,357.91,206.63z M581.4,374.97l2.57,1.9l-48.61-32.17L386.27,243.85c0.05-0.21,0.09-0.43,0.11-0.65
		c0.09-0.83-0.02-1.64-0.28-2.39L581.4,374.97z M268.04,163.87c0.54-0.56,0.97-1.23,1.27-2c0.14-0.35,0.23-0.71,0.3-1.07
		l111.12,76.33c-1.09,0.03-2.11,0.39-2.96,0.98l-43.37-29.34c-0.01-2.2-1.34-4.28-3.52-5.12c-1.35-0.52-2.77-0.47-4.01,0.03
		L268.04,163.87z M377.6,238.23c-0.8,0.6-1.43,1.42-1.81,2.38l-42.86-28.1c0.46-0.5,0.85-1.09,1.11-1.77
		c0.22-0.58,0.33-1.16,0.36-1.75L377.6,238.23z M332.79,212.66l42.93,28.14c-0.14,0.39-0.24,0.8-0.28,1.23
		c-0.03,0.25-0.03,0.5-0.02,0.74l-44.54-28.88C331.59,213.63,332.24,213.21,332.79,212.66z M323.44,209.32
		c0.08,0.77,0.31,1.51,0.69,2.17l-10.43-6.69c0.2-0.32,0.38-0.66,0.52-1.03c0.05-0.12,0.08-0.24,0.12-0.36L323.44,209.32z
		 M293.92,193.94c0.19-0.31,0.37-0.65,0.5-1.01c0.27-0.71,0.4-1.45,0.4-2.17l9.81,6.36c-0.7,0.62-1.26,1.4-1.62,2.33
		c-0.03,0.07-0.05,0.14-0.07,0.21L293.92,193.94z M312.78,205.92c0.3-0.29,0.57-0.6,0.8-0.95l10.79,6.92
		c0.61,0.89,1.48,1.61,2.56,2.02c0.34,0.13,0.69,0.23,1.04,0.29l47.96,30.76c0.79,1.68,2.41,2.93,4.4,3.14
		c0.18,0.02,0.37,0.03,0.55,0.03l176.59,113.24c0,0-0.01,0-0.01,0L312.78,205.92z M561.12,363.99c0-0.02,0-0.04,0-0.06l4.92,3.13
		l-4.95-2.98C561.11,364.05,561.12,364.02,561.12,363.99z M361.27,245.44c0.2-0.42,0.35-0.87,0.44-1.35l195.2,117.69
		c-0.16,0.16-0.3,0.35-0.41,0.56L361.27,245.44z M559.93,365.69c0.28-0.16,0.52-0.38,0.71-0.63l17.85,10.69L559.93,365.69z
		 M586.57,380.35l2.66,1.44l1.06,0.68l-1.2-0.61L586.57,380.35z M258.98,220.62c0.28-0.59,0.46-1.23,0.54-1.91
		c0.13-1.23-0.12-2.4-0.65-3.42l16.9,8.53c-1.94,0.11-3.66,1.14-4.69,2.71L258.98,220.62z M281.76,231.76
		c0.14-0.42,0.25-0.86,0.3-1.32c0.15-1.43-0.21-2.8-0.94-3.91l15.87,8.02c-0.65,0.85-1.09,1.87-1.21,3.01
		c-0.04,0.36-0.04,0.71-0.01,1.05L281.76,231.76z M305.09,243.16c1.14-0.77,2.01-1.93,2.41-3.31l170.02,85.87
		c-0.49,0.27-0.89,0.67-1.17,1.17L305.09,243.16z M481.71,329.52c0.09-0.2,0.16-0.42,0.2-0.65c0.06-0.31,0.05-0.62,0.01-0.92
		l35.79,18.07c-0.22,0.24-0.38,0.53-0.49,0.85L481.71,329.52z M522.01,348.2l63.37,32.01l-63.72-31.15
		C521.83,348.8,521.94,348.51,522.01,348.2z M593.14,384.51l1.48,0.89c-0.02,0.04-0.02,0.09-0.04,0.13l-0.95-0.41L593.14,384.51z
		 M593.85,385.7L580.1,381c-0.06-0.65-0.54-1.21-1.22-1.33c-0.52-0.09-1.02,0.09-1.36,0.45l-77.33-26.41
		c0.04-0.13,0.09-0.25,0.11-0.39c0.25-1.36-0.66-2.66-2.02-2.9c-1.24-0.22-2.42,0.52-2.81,1.68l-110.3-37.67
		c0.06-0.18,0.12-0.36,0.16-0.55c0.44-2.45-1.18-4.79-3.63-5.23c-2.45-0.44-4.79,1.19-5.23,3.63c-0.44,2.45,1.18,4.78,3.63,5.23
		c2.18,0.39,4.27-0.87,5.01-2.88l110.3,37.67c-0.01,0.05-0.03,0.09-0.04,0.14c-0.25,1.36,0.66,2.66,2.02,2.9
		c1.15,0.21,2.26-0.42,2.72-1.44l77.27,26.39c-0.12,0.17-0.21,0.37-0.25,0.59c-0.05,0.27-0.02,0.54,0.07,0.78l-25.85-7.28
		c0.01-0.03,0.02-0.06,0.03-0.09c0.2-1.09-0.53-2.13-1.61-2.32c-0.99-0.18-1.93,0.41-2.24,1.34l-295.91-83.33
		c0.18-0.73,0.1-1.59-0.36-2.49c-1.44-1.57-3.28-1.49-4.44-0.54l-14.71-16.85c0.59-0.74,0.97-1.67,0.99-2.72
		c0.05-1.92-1.2-3.71-3.01-4.34c-1.17-0.4-2.34-0.3-3.34,0.16l-30.98-47.61c0.94-0.33,1.76-0.96,2.31-1.82l395.43,171.52
		L593.85,385.7z M192.32,215.39c0.32,0.16,0.67,0.28,1.04,0.36c0.74,0.16,1.5,0.11,2.21-0.1l31,47.62
		c-1.11,0.56-1.97,1.58-2.31,2.85h-16.84c-0.03-1.84-1.25-3.55-3-4.15c-2.34-0.8-4.73,0.39-5.62,2.48l-10.34-4.15
		c0.17-0.46,0.28-0.96,0.29-1.49c0.05-1.92-1.2-3.71-3.01-4.34c-0.19-0.07-0.39-0.12-0.58-0.16L192.32,215.39z M180.19,260.66
		c0.51,1.06,1.43,1.92,2.57,2.32c2.34,0.8,4.73-0.39,5.62-2.48l10.34,4.15c-0.17,0.46-0.28,0.96-0.29,1.49
		c-0.05,1.92,1.2,3.71,3.01,4.34c0.7,0.24,1.4,0.3,2.07,0.21l3.9,25.51c-1.47,0.26-2.73,1.23-3.34,2.62l-52.91-21.73
		c0.18-0.47,0.29-0.98,0.31-1.53c0.02-0.64-0.12-1.26-0.37-1.83L180.19,260.66z M144.86,279.44c0.2,0.11,0.41,0.2,0.62,0.27
		c1.97,0.68,3.98-0.07,5.1-1.57l58.15,41.21c-0.46,0.68-0.8,1.46-0.96,2.32c-0.08,0.44-0.1,0.87-0.09,1.3l-70.8,3.97
		c-0.13-1.75-1.31-3.32-2.99-3.9c-2.91-1-5.91,1.09-5.99,4.16c-0.02,0.6,0.11,1.18,0.32,1.72l-12.05,5.01
		c-0.21-0.57-0.56-1.07-1.02-1.47L144.86,279.44z M115.65,337.3c0.47-0.6,0.77-1.36,0.76-2.23c0-0.32-0.06-0.64-0.15-0.95
		l12.06-5.01c0.5,1.11,1.43,2.03,2.62,2.43c1.23,0.42,2.48,0.29,3.52-0.24l33.5,62.86c-0.19,0.11-0.37,0.23-0.54,0.38L115.65,337.3z
		 M170.6,400.55c0.3-0.08,0.59-0.21,0.86-0.37l12.22,14.1l-9.19,2.08L170.6,400.55z M158.65,424.25c0.04,0.01,0.07,0.03,0.11,0.03
		c2.45,0.44,4.79-1.19,5.23-3.63c0.1-0.58,0.09-1.15-0.03-1.69l10.38-2.35l12.72,51.74c-1.2,0.3-2.18,1.23-2.42,2.47
		c-0.12,0.61-0.03,1.21,0.2,1.74l-37.48,15.83c-0.5-1.1-1.43-2.01-2.61-2.41c-0.13-0.04-0.25-0.07-0.38-0.1L158.65,424.25z
		 M142.56,494.66c1.29,0.21,2.54-0.16,3.49-0.91l25.55,30.94c-0.45,0.39-0.82,0.87-1.06,1.44l-27.36-10.86
		c0.17-0.46,0.27-0.95,0.29-1.48c0.05-1.92-1.2-3.71-3.01-4.34c-0.19-0.07-0.39-0.12-0.58-0.16L142.56,494.66z M94.53,508.04
		c1.27-0.65,2.25-1.82,2.6-3.3l37.44,8.11c-0.05,0.25-0.08,0.5-0.09,0.77c-0.05,1.92,1.2,3.71,3.01,4.34
		c0.2,0.07,0.39,0.12,0.59,0.16l-4.02,22.15c-2.4-0.38-4.67,1.21-5.12,3.61l-14.24-2.34c0.34-2.38-1.25-4.63-3.64-5.06
		c-0.94-0.17-1.86-0.03-2.66,0.34L94.53,508.04z M108.23,544.9c0.38,0.19,0.79,0.35,1.23,0.43c2.43,0.44,4.76-1.17,5.22-3.6
		l14.24,2.34c-0.34,2.38,1.25,4.63,3.64,5.06c0.44,0.08,0.87,0.07,1.29,0.02l1.76,13.27c-1.84,0.29-3.39,1.69-3.74,3.63
		c-0.42,2.31,1.02,4.5,3.23,5.11l-3.11,12.31c-0.07-0.02-0.13-0.05-0.2-0.06c-2.02-0.36-3.95,0.69-4.82,2.45l-28.61-13.3
		c0.14-0.32,0.25-0.65,0.32-1c0.35-1.93-0.6-3.78-2.22-4.7L108.23,544.9z M94.89,575.21c1.46-0.21,2.72-1.13,3.37-2.45l28.61,13.3
		c-0.14,0.32-0.25,0.65-0.32,1c-0.34,1.87,0.54,3.67,2.06,4.61l-23.12,39.16c-0.62-0.36-1.31-0.62-2.06-0.75
		c-0.62-0.11-1.24-0.13-1.84-0.06L94.89,575.21z M107.84,633.11c-0.53-0.88-1.27-1.63-2.17-2.18l23.12-39.17
		c0.43,0.24,0.89,0.43,1.39,0.52c2.45,0.44,4.79-1.19,5.23-3.63c0.42-2.31-1.02-4.5-3.23-5.11l3.11-12.31
		c0.07,0.02,0.13,0.05,0.2,0.06c2.38,0.43,4.65-1.11,5.17-3.44l54.53,11c-0.19,1.06,0.03,2.09,0.51,2.96L107.84,633.11z
		 M187.87,602.79c1.23-0.61,2.18-1.77,2.44-3.22c0.29-1.59-0.31-3.13-1.43-4.13l8.28-12.04c0.49,0.32,1.05,0.55,1.67,0.66
		c2.07,0.37,4.06-0.75,4.89-2.59l18.28,7.74c-0.08,0.21-0.15,0.42-0.19,0.65c-0.21,1.18,0.2,2.34,0.99,3.12l-24.18,26.14
		c-0.6-0.53-1.33-0.92-2.17-1.07c-0.83-0.15-1.64-0.05-2.37,0.23L187.87,602.79z M228.65,633.79c0.73,0.55,1.59,0.95,2.55,1.12
		c3.26,0.59,6.38-1.58,6.97-4.84c0.01-0.06,0.01-0.13,0.02-0.19l58.88,7.68c-0.04,0.32-0.06,0.65-0.05,0.99
		c0.02,0.43,0.1,0.85,0.21,1.26l-87.79,25.49c-0.39-1.27-1.16-2.4-2.21-3.21L228.65,633.79z M265.62,757.2
		c-0.62-0.38-1.31-0.66-2.07-0.79c-1.49-0.27-2.95,0.04-4.15,0.77l-52.65-84.51c1.46-0.94,2.55-2.46,2.88-4.3
		c0-0.02,0-0.04,0.01-0.06l98.22,15.23c-0.23,1.74,0.56,3.4,1.94,4.33L265.62,757.2z M311.12,688.44c0.13,0.04,0.25,0.09,0.38,0.11
		c0.48,0.09,0.96,0.07,1.42,0.01l2.89,17.81c-1.79,0.33-3.27,1.72-3.61,3.61c-0.32,1.77,0.45,3.47,1.82,4.45l-16.76,24.56
		c-0.3-0.2-0.61-0.37-0.96-0.48c-0.04-0.01-0.07-0.02-0.11-0.03L311.12,688.44z M297.43,739.09l16.75-24.54
		c0.49,0.32,1.05,0.55,1.65,0.65c1.03,0.19,2.04-0.01,2.9-0.47l13.13,23.49c-0.95,0.66-1.65,1.68-1.87,2.9
		c-0.05,0.27-0.06,0.53-0.06,0.79l-30.63,0.64C299.25,741.17,298.54,739.89,297.43,739.09z M337.63,738.78l20.32-19.71
		c0.62,0.62,1.43,1.06,2.36,1.23c0.95,0.17,1.88,0.02,2.69-0.35l15.21,30.93c-1.71,0.79-3.03,2.37-3.4,4.37l-36.11-12
		c0.05-0.17,0.12-0.34,0.15-0.52C339.11,741.23,338.61,739.79,337.63,738.78z M386.24,758.63c0.17-0.4,0.29-0.81,0.37-1.25
		c0.38-2.09-0.38-4.13-1.84-5.47l25.53-28.62c0.59,0.5,1.3,0.87,2.11,1.02c0.55,0.1,1.09,0.08,1.61-0.02l9.74,46.97
		c-1.34,0.31-2.46,1.23-3.05,2.49L386.24,758.63z M428.85,777.51c0.15-0.34,0.28-0.69,0.35-1.07c0.44-2.45-1.18-4.78-3.63-5.23
		c-0.55-0.1-1.09-0.08-1.61,0.02l-9.74-46.97c0.44-0.1,0.86-0.29,1.25-0.51l30.21,57.65c-1.63,0.06-3.08,1.01-3.82,2.44
		L428.85,777.51z M450.33,785.87c0-1.88-1.19-3.57-2.97-4.21l9.77-28.39l40.99,31.04c-0.38,0.53-0.67,1.14-0.79,1.83
		c-0.04,0.21-0.04,0.41-0.05,0.61L450.33,785.87z M502.72,782.56c-0.06-0.01-0.11-0.04-0.17-0.05c-0.23-0.04-0.45-0.05-0.68-0.05
		l0.08-15.59c1.18-0.02,2.28-0.51,3.09-1.31l1.77,0.21L502.72,782.56z M507.06,765.6l16.86-69.18c0.78,0.12,1.54,0.02,2.24-0.24
		l30.06,75.3L507.06,765.6z M556.44,771.51l-30.1-75.39c1.35-0.57,2.39-1.79,2.67-3.34c0.4-2.22-0.91-4.34-2.98-5.04l72.2-296.31
		c0.25,0.03,0.5,0.06,0.75,0.05l-9.52,383.98L556.44,771.51z M589.66,775.48l9.52-384.03c0.11-0.01,0.22-0.02,0.32-0.04l1.44,15.18
		c-0.03,0.07-0.07,0.13-0.08,0.2c-0.05,0.27,0.02,0.54,0.17,0.75l35.06,369.2c-1.91,0.23-3.54,1.65-3.91,3.65
		c-0.01,0.06-0.01,0.11-0.01,0.17L589.66,775.48z M639.36,784.74c0.85-0.66,1.47-1.6,1.68-2.74c0.39-2.15-0.83-4.22-2.79-4.99
		l18.65-51.18c0.21,0.07,0.42,0.14,0.64,0.18c1.5,0.27,2.95-0.24,3.96-1.24l29.06,28.05l-38.84,38.87
		c-0.83-0.72-1.87-1.24-3.05-1.44c-1.65-0.28-3.25,0.09-4.54,0.92L639.36,784.74z M653.58,794.77c-0.25-1.12-0.85-2.14-1.71-2.94
		l38.83-38.86l27.17,26.22c-0.56,0.61-0.97,1.37-1.13,2.25c-0.09,0.52-0.08,1.03,0,1.52L653.58,794.77z M725.48,780.98
		c-0.46-1.58-1.77-2.86-3.5-3.17c-0.68-0.12-1.35-0.07-1.97,0.1l-7.28-24.73l36.74,18.47c-0.17,0.35-0.31,0.72-0.38,1.13
		c-0.12,0.64-0.08,1.27,0.06,1.86L725.48,780.98z M757.87,774.6c0.02-0.08,0.05-0.16,0.07-0.24c0.12-0.68,0.07-1.34-0.1-1.96
		l37.05-10.88l11.49,22.16c-1.11,0.64-1.96,1.69-2.32,2.99L757.87,774.6z M813.77,787.11c-0.36-1.99-1.91-3.65-4.02-4.03
		c-0.12-0.02-0.25-0.02-0.37-0.03l2.18-20.07c2.31,0.21,4.48-0.93,5.65-2.82l35.09,20.9L813.77,787.11z M854.99,780.84
		c0.28,1.33,1.37,2.43,2.87,2.68c1.94,0.33,3.8-0.89,4.15-2.74s-0.94-3.6-2.88-3.94c-0.15-0.03-0.3-0.03-0.45-0.03l1.05-43.78
		c0.38,0,0.76-0.05,1.12-0.13l19.02,64.33l-26.98-16.07L854.99,780.84z M880.01,797.04l-18.98-64.19c1.56-0.45,2.81-1.68,3.12-3.3
		c0.44-2.31-1.18-4.53-3.62-4.94c-0.48-0.08-0.95-0.07-1.4-0.01l-9.48-56.36l49.18,32.93L880.01,797.04z M866.28,636.4
		c-2.23-0.12-4.26,1.42-4.67,3.67c-0.44,2.45,1.18,4.79,3.63,5.23c1.47,0.27,2.9-0.23,3.91-1.19l32.6,34.07l-2.89,22.77
		l-49.26-32.99l-5.55-32.97c2.33-0.43,4.26-2.22,4.77-4.66l17.67,3.41L866.28,636.4z M866.51,633.54l-17.65-3.41
		c0.57-3.25-1.59-6.36-4.84-6.94c-2.01-0.36-3.97,0.33-5.31,1.67L653.51,446.52L614,403.17c0.51,0.04,0.98-0.29,1.07-0.8
		c0.1-0.54-0.26-1.06-0.81-1.16c-0.54-0.1-1.06,0.26-1.16,0.81c-0.01,0.06,0,0.12,0,0.18l-3.98-4.37c0.3-0.13,0.54-0.38,0.6-0.73
		c0.1-0.54-0.26-1.06-0.81-1.16c-0.44-0.08-0.85,0.15-1.05,0.52l-5.8-6.36c0.11-0.12,0.21-0.25,0.31-0.39l26.4,20.69
		c-1.06-0.15-2.06,0.56-2.25,1.62c-0.2,1.09,0.53,2.13,1.61,2.32c1.09,0.2,2.13-0.53,2.32-1.61c0.07-0.39,0.02-0.76-0.12-1.1
		l238.84,187.21L866.51,633.54z"/>
	<path class="st0" d="M463.46,115.23c-0.19,0-0.19,0.3,0,0.3C463.65,115.53,463.65,115.23,463.46,115.23z"/>
</g>
</svg>
